<svg xmlns="http://www.w3.org/2000/svg" width="20.523" height="13.518" viewBox="0 0 20.523 13.518">
  <g id="burger-icon" transform="translate(-13.477 -17)">
    <rect id="Rectangle_2" data-name="Rectangle 2" width="20.523" height="1.518" rx="0.759" transform="translate(13.477 17)" fill="#fff"/>
    <rect id="Rectangle_26" data-name="Rectangle 26" width="20.523" height="1.518" rx="0.759" transform="translate(13.477 21)" fill="#fff"/>
    <rect id="Rectangle_27" data-name="Rectangle 27" width="20.523" height="1.518" rx="0.759" transform="translate(13.477 25)" fill="#fff"/>
    <rect id="Rectangle_28" data-name="Rectangle 28" width="20.523" height="1.518" rx="0.759" transform="translate(13.477 29)" fill="#fff"/>
  </g>
</svg>
