sno-1
<b>परमपिताको स्तुति गाऔं, हामीलाई बचाउने उनै हुन् <br> 
सबै पापीलाई गर्छन् क्षमा, सबै रोगीलाई गर्छन् चङ्गा! <br> 
</b><br> 
2. धन्यवाद दिई उनको आसनमा, आनन्दित भई आऊ उनको चरणमा <br> 
संगीत गाउँदै खुशीले मुक्तिको पहरामा जय जय गरौं!<br> 
</b><br> 
3. उनै हुन् हाम्रा परम पिता, हामीलाई टिठाउँछन सर्वसदा <br> 
कालो बादलको पर्दाजस्तो पापलाई हटाइदिन्छन् सदा! <br> 
</b><br> 
4. आमाले झै उनले शान्ति दिए, दुनियाँ को डरमा छोडेनन् कैले <br> 
चोखो दूध वचनको पियाई, जीवन अमर दिए उनले!<br> 
</b><br> 
5. गोठालोले झै खोजी उनले निकाले पापको दलदलदेखि <br> 
प्राण त्यागी बचाए उनले, गराए सबलाई आफ्नै अनि! <br> 
</b><br> 
6. गुँडुलाई घरी घरी भत्काइदिए, सिकाए हामीलाई उड्न आफै <br> 
पखेटामा उठाई उकाबले झै पारेनन् हामीलाई चोट कतै<br> 
</b>
--endofsong--

sno-2
<b>महान् ईश्वर, बिचार्छ काम तपाईंको, अचम्मको जो सृष्टि गर्नुभो </b><br> 
<b>हेर्छ तारा, सुन्छु गर्जन डरलाग्दो, प्रकट सामर्थ संसारमा तपाईको! </b><br> 
<b>प्रशंसा होइरहोस् ईश्वरको, कति महान् कति महान्(2) </b><br> 
<br> 
2. पहाड़ - पर्वत, जंगल म जब घुम्छु, पक्षीहरू म सुन्छु गाएको <br> 
सुन्दर पहाड़देखि म तल हेर्छ, कलकल आवाज खोलाको सुन्दछु! <br> 
<br> 
3. जब पिताले एकलौटे पुत्रलाई, पठाए - जगमा पाप उठाउनलाई <br> 
मेरो बदली क्रूसैमा उनी चढी उद्धार मेरो गरे रगत बहाई!<br> 
<br> 
4. जयध्वनिसाथ, येशू संसारमा आउँछन् असीम आनन्दसाथ लैजान्छन् वहाँ <br> 
वनम्रसाथ उनलाई वहाँ पुज्नेछु, महान् ईश्वरको गर्छ प्रशंसा! <br> 
<br> 
--endofsong--

sno-3
<b>धन्य धन्य परमेश्वर, जगत्कर्ता धन्य हौ(2) <br> 
स्वागत गरी तिमीलाई स्तुति चढाउँछौं, <br> 
अनेक ग्रह, प्रकृति, मानिस सबलाई बनायौ  <br> 
प्राणी सबलाई आशिष् दिई, जगमा फैलायौ! <br> 
</b><br> 
2. हे नाथ, प्रभु परमेश्वर, मतभेद हुन्थे जगमा(2) <br> 
मानिस पापमा फसेथे ', गर्दथे ' विलाप, <br> 
दूतले भने स्वर्गलोकमा हुन्छ सदा महिमा <br> 
पृथ्वीमा खुशी हवस, मानिसमा मिलाप! <br> 
<br> 
3. तिमि सबको स्वामी भई मुक्तिको मार्ग देखायौ(2) <br> 
पापको अन्त गर्नलाई खीष्टलाई पठायौ, <br> 
हुँदैन अन्त प्रेमको, प्रेमको लिप्त दयालु प्रभु <br> 
धन्यवाद चढाई स्तुति गाउँछौ, परमेश्वर को! <br> 
<br> 
4. हे परमेश्वर, तिमिलाई यी क्षुद्र विनय चढाउँछौं(2) <br> 
पश्चात्तापी भई पापलाई प्रकाश गराउँछौ <br> 
ती हाम्रो पाप सब क्षमा देऊ, सदैव राख आपनो छेऊ <br> 
अन्त्यमा जगत् छोडी आउँदा हाम्रो आत्मा लेऊ!<br> 
<br> 
--endofsong--


sno-4
<b>स्तुति को योग्य महिमाको परमश्वर, पापीको सब पापलाई मेटाउने(2) <br> 
<b>तपाईंको दर्शन पाएर अटल भई, त्यागरे संसार पछयाउँछु प्रभुलाई(2) <br> </b></b>
<br> 
1. अन्धकारपूर्ण छ यो पापी संसार, शैतानको पासो र जाल छन् हजार(2) <br> 
तपाईको दर्शन पाएर अटल भई, त्यागेर संसार पछयाउँछु प्रभुलाई(2)<br> 
<br> 
2. गर्जने सिंहझै वैरी कराउँछ, पानीको छालझै मनलाई हल्लाउँछ (2) <br> 
तपाईको दर्शन पाएर अटल भई, त्यागेर संसार पछयाउँछु प्रभुलाई(2) <br> 
<br> 
3. आँधीझै शैतान तर्साउन आउँछ, कमजोर विश्वासको जरा हल्लाउँछ(2) <br> 
तपाईको दर्शन पाएर अटल भई, त्यागेर संसार पछयाउँछु प्रभुलाई(2) <br> 
<br> 
4. स्वर्गीय घरको दर्शन दिनुहोस्, फेरि एकचोटि ओर्लिआउनुहोस्(2) <br> 
आत्माको आगेले प्रत्येकलाई जगाउनुहोस्, बिन्ती यो हाम्रो ग्रहण गर्नुहोस्(2)<br> 
<br> 
--endofsong--

sno-5
<b>कुहु - कुहु गर्ने, वनमा उड्ने कोइली चरी छन! </b><br> 
<b>खलुलुलु गर्दै खोला बग्ने तपाईंका सृष्टि हुन्! </b><br> 
<b>हे ईश्वर, तपाईको सृष्टि हुन् </b><br> 
<br> 
1. जकजक गर्ने बत्तीझै बल्ने आकाशमा तारा छन्(2) <br> 
जूनको किरण कति हो नरम(2), <br> 
तपाईका सृष्टि हुन्, हे ईश्वर, तपाईका सृष्टि हुन्, <br> 
मृगका पाठा के राम्रा गरी वनमा उफ्रेका, <br> 
पशु र पक्षी के राम्रा गरी तपाईंले रचेका, हे ईश्वर, तपाईंले रचेका! <br> 
<br> 
2. वनमा जान्छु, फल - फूल हेर्छ तपाईलाई सम्झन्छु(2) <br> 
तपाइकी रचना सम्झरे मनमा(2), <br> 
म छक्क पर्दछु, हे ईश्वर, म छक्क पर्दछु! <br> 
न्याउली चरी बिनौला गाई वनमा उडेका <br> 
पशु र पक्षी के राम्रो गरी तपाईंले रचेका, हे ईश्वर, तपाईंले रचेका! <br> 
<br> 
3. अब्राहाम, इसहाक, याकूबका ईश्वर, दाता जीवनका(2) <br> 
पापीका निम्ति अति प्रेम गरी(2),<br> 
 पुत्र दिए बलिदान, <br> 
हे ईश्वर, तपाईं तारणहार पापी हृदय छट्पट गरी खोज्छ मुक्ति उपाय! <br> 
मुक्तिको बाटो स्वर्गका वैभव तपाईले रचेका, हे ईश्वर, तपाईंले रचेका!<br> 
<br> 
--endofsong--

sno-6
<b>राजा येशू आए, हल्लेलुयाह आए(2) </b><br> 
<b>शैतानलाई जित्नका लागि राजा येशू आए(2) </b><br> 
<br> 
1. पापको क्षमा पाई हुन्छु म आनन्दित(2) <br> 
मन लाई शुद्ध पार्नलाई राजा येशू आए(2) <br> 
<br> 
2. यस संसारमा पाप र दुःख हुन्छन् धेरै - धेरै(2) <br> 
सत्य शान्ति दिनलाई राजा येशू आए(2) <br> 
<br> 
3. येशू महाराजा, महाप्रभु येशू(2) <br> 
हल्लेलूयाह सबले भने राजा येशू आए(2)<br> 
<br> 
--endofsong--

sno-7
<b>भजौं मीठो नाम, प्रभु येशू नाम, </b><br> 
<b>प्यारो प्रभु येशूलाई, गरौं आदर मान </b><br> 
<b>भजौं मीठो नाम! </b><br> 
<br> 
1. सारा भूलोक भरका पापीहरूलाई, येशू मात्र छन् शुद्ध गर्नलाई(2) <br> 
उनको मीठी वाणी सुन मन लगाई, चढाउदै हृदय भेटी उनलाई <br> 
<br> 
2. येशू हाम्रो लागि संसारमा आए, हाम्रो आत्मालाई अति प्रेम गरे(2)<br>  
क्रूसमा कोखाबाट रगत बगाए, धुनलाई हाम्रो पापी हृदय <br> 
<br> 
3. नरकभन्दा ठूलो दण्ड केही छैन जहाँ सधै आगो, गन्धक निभ्दैन(2) <br> 
फर्कौ आज सबै चढाऔ खीष्टलाई मन, रमाउँदै गरौं उनको भजन<br> 
<br> 
--endofsong--

sno-8
<b>खीष्ट मेरो मुक्तिदाता हुन्, उनी हुन् मित्र पापीको </b><br> 
<b>सदा स्तुति होस् प्रभूको आदर महिमा उनैको </b><br> 
<br> 
1. येशू संसारका ज्योति हुन्, येशू स्वर्गका बाटो हुन्! <br> 
येशू तारणहार हुन्, पापीको केवल सहारा हुन्(2) <br> 
<br> 
2. त्यागे येशूले स्वर्ग - सुख, उठाउन पापीहरूका दुःख <br> 
दिए येशूले क्रूसमा प्राण गराउन पापीहरूको त्राण(2)<br> 
<br> 
--endofsong--

sno-9
<b>चिन्नुपर्छ सबैले(2), चिन्नुपर्छ सबैले येशू को हुन्!</b><br> 
<b>1. उनी शान्ति दिने खीष्ट हुन्, जगत्का हुन् तारणहार <br> 
तिम्रो मेरो मुक्तिदाता चिन्नुपर्छ सबैले! <br> </b>
<br> 
2. उनी मेरो प्यारो मित्र, मनमा खुशी दिँदछन्! <br> 
मेरो जीवनको उज्यालो, चिन्नुपर्छ सबैले! <br> 
<br> 
3. उनी निस्कलंक अवतार, पुत्र हुन् परमेश्वर का <br> 
फेरि पछि आउने राजा, चिन्नुपर्छ सबैले!<br> 
<br> 
--endofsong--

sno-10
<b>येशूको नाम छ सारा संसारमा सबैलाई गर्न उद्धार </b><br> 
<br> 
1. दुनियाँमा आई, क्रूसैमा चढी देखाए आपनो प्यार <br> 
आत्मा बचाउन, शान्ति दिन येशू भए बलिदान! <br> 
<br> 
2. स्वर्गको मुनि, मान्छेको बीचमा कुनै अरू नामै छैन <br> 
येशू नाम मात्र सबै दुनियाँमा पापीलाई गर्न उद्धार!<br> 
<br> 
--endofsong--

sno-11
<b>हा हा हाल्लेलूय्याह, मिली हामी भजौं, भजन प्रभुज्यूको(2) </b><br> 
<br> 
1. उनी राजाहरूका राजा, उनको चरणमा आऔं आज(2) <br> 
उनको स्तुति गाऔं, उनको महिमा गाऔं(2) <br> 
तन - मन साथ उनलाई भजौं! <br> 
<br> 
2. येशू ख्रीष्ट संसारमा आए हाम्रो पापको भार उठाए(2) <br> 
उनमा विश्वास गरौं, उनको शरण परौं(2) <br> 
पाउँछौ मुक्तिदान, हामी सब आऔं! <br> 
<br> 
3. जाति - जातिका मानिस आऔं, प्रभु येशू को गुण गाऔं(2) <br> 
उनले पापी मनमा भर्छन् शान्ति पूरा(2)<br> 
उनले पापीलाई दिन्छन् जीवन!<br> 
<br> 
--endofsong--

sno-12
<b>स्तुति होस् प्रभु खीष्टको, आदर र प्रशंसा </b><br> 
<b>महिमा उनैको, होस् सदा - सर्वदा(2) </b><br> 
<br> 
1. फर्केर हेर्छ विगत दिनहरू, वर्तमान नियाल्छु(2) <br> 
आशिषको झरी जीवनैभरी(2) बर्षको थाहा गर्छु <br> 
औधी रमाउँदै पूर्ण हृदयले, ख्रीष्ट को बढाइ गर्छु(2) <br> 
<br> 
2. अत्यन्त प्रेमी, अति सामर्थी, ख्रीष्ट मेरा छन् साथी(2) <br> 
मेरो अविश्वास औ हारमा पनि(2) येशू छन् विश्वासी <br> 
यसकारण भन्छु, जय हाल्लेलुयाह, धन्यवाद चढाउँछु(2) <br> 
<br> 
3. निराशमा आशा, दु : खमा शान्ति, असहायका सहारा(2) <br> 
राजाहरूका पनि ख्रीष्ट राजा(2) मेरा मुक्तिदाता <br> 
जय प्रभु येशू, जय मुक्तिदाता, जयजय हाल्लेलुय्याह(2)<br> 
<br> 
--endofsong--


sno-13
<b>चढ़ाउँछु प्रभु धन्यवाद आज क्रूसको त्यो प्रेमको निम्ति </b><br> 
<b>थुकाई र कुटाई सहनुभो जति ती सब थिए मेरै निम्ति(2) </b><br> 
<br> 
1. काँडे मुकुट पहिरी शिरमा, हात - पाउलाई जड़ी क्रूसमा(2) <br> 
हुनुभो बलि मेरो नै निम्ति निर्दोष पाठोको रूपमा(2) <br> 
<br> 
2. पीड़ा तपाईलाई, शान्ति मलाई, क्रूस तपाईको, मुकुट मेरो(2) <br> 
मृत्यु तपाईलाई, जीवन मलाई, प्रेम मलाई किन यस्तो ?(2) <br> 
<br> 
3. देख्छु महिमित स्वर्ग मेरो, तर होइन कमाई मेरो(2) <br> 
हर्षाश्रु झार्दै प्रशंसा गर्छ, यो ता हो दान तपाईंको(2)<br> 
<br> 
4. घृणित पापलाई गर्छ घृणा, कारण यही हो लाने क्रूसमा(2) <br> 
सजाउँछु सिंहासन प्रभु हृदयमा, रहनुहोस् प्रभु यसमा(2)<br> 
<br> 
--endofsong--

sno-14
<b>जय होस् येशू राजाको, मुक्तिदाताको, उद्धारकर्ताको(2) </b><br> 
<br> 
1. उनले हामीलाई प्रेम गरी क्रूसको सबै दुःख भोग्नुभो <br> 
हर पापको बन्धनलाई तोड़ी हामीलाई स्वतन्त्र गर्नुभो! <br> 
<br> 
2. पुरानो जीवन सब भूली नयाँ जीवन खीष्टमा जिउनेछु <br> 
पिताको हर प्रतिज्ञालाई सम्झी खीष्टको पाइलो म पछयाउने छु!<br> 
<br> 
--endofsong--

sno-15
<b>महान् प्रभु अति उच्चमा दूतगणले गर्छन् महिमा </b><br> 
<b>हे प्रभु तपाईंको मण्डली आराधना गछौं तपाईलाई!</b><br> 
<br> 
1. प्रेमको ठूलो रहस्यलाई, महिमा गौरवको त्यागलाई(2) <br> 
सम्झन्छु क्रूसको दुःखलाई अर्पन्छु सर्वाग्ङ तपाईंलाई(2) <br> 
<br> 
2. आउनुभो प्रभु हाम्रो माझमा, जड़िएको मन मन्दिरमा(2) <br> 
भरपूर छु, भरिइरहन्छु, झन् नजीक हुन चाहन्छु(2) <br> 
<br> 
3. महिमा, आदर र धन्यवाद सर्वदा गर्दछु दण्डवत्(2) <br> 
तपाईको गम्भीर प्रेमको सागरमा डुबें प्रभु म(2)<br> 

<br> 
--endofsong--

sno-16
<b>स्तुति होस् प्रभुको जयजयकार! </b><br> <br> 
1. भुल्नेछैन म, त्यो दृश्य प्रभु येशूको, <br> 
कलवरी भनिने ठाउँमा उनी टाँगिएका <br> 
हात - पाउ र शरीर उनको चोटैचोटले पूर्ण थियो(2) <br> 
मैले जाने ती सबै कारण मेरो अधर्म हो(2) <br> 
<br> 
2. भुल्नेछैन म, त्यो वचन भनेको खीष्टले, <br> 
कलवरी भनिने ठाउँमा गम्भीर प्रेमको भावले <br> 
पुत्र तेरा अधर्म सबै पापको ऋण तिरिसकें(2) <br> 
उद्धार छ तेरो लागि यहाँ कमाएँ जो मैले(2)<br> 
<br> 
--endofsong--

sno-17
<b>जीवनको स्वामी प्रभुलाई महिमा होस् सधैं <br> 
म जब भुल्छु तपाईंलाई, कलवरीमा डोन्याऊ! <br> 
</b>
<b>भुल्छु जब गलगथाको कष्टको प्रार्थना तपाईंको </b><br> 
<b>भुल्छु जब प्रेम तपाईंको कलवरीमा डोन्याऊ </b><br> 
<br> 
2. देखाऊ मलाई चिहान उनको दूतगणले घेरेको <br> 
जहाँ यस कठोर हृदय लिई गर्छ अर्पण उनलाई!<br> 
<br> 
3. मरियमले चिहानमा दानलिई तपाईंलाई खोजे थि <br> 
हृदयको दान लिई म पनि खोज्न सकुँ अनि! <br> 
<br> 
4. छु प्रभु बोक्नलाई तयार आपनो त्यो क्रूसको भार <br> 
गर्नेछु जीवन दुःख पार शक्ति देऊ तारणहार!<br> 
<br> 
--endofsong--


sno-18
<b>कलवरी डाँडाको महादुःख सहनुपर्यो प्रभुले <br> 
मजस्तो पापीलाई बचाउन क्रूसैमा प्राण दिए!<br> 
</b><br> 
1. कतिको निन्दा, कतिको थुक, कतिको भनाइ सहेर(2) <br> 
त्यो गह्रौं कूस बोकेर गलगथा पुर्याए! <br> 
<br> 
2. सिपाहीहरू मिलेर येशूलाई क्रूसमा चढाए(2) <br> 
उनैका वस्त्र फुकाई चिठ्ठा लगाए! <br> 
<br> 
3. हातैमा काँटी, पावैमा काँटी ठोके दुश्मनहरूले(2) <br> 
कोखामा भाला हानेको सहे प्रभु येशूले! <br> <br> 

4. जब क्रूसमा चढाए, येशूकी माता मरियम(2) <br> 
रुँदै - रुँदै आइपुगिन् येशू को छेवैमा!  <br> <br> 

5. हे दाज्यू - भाइ, हे दिदी - बहिनी, पश्चात्ताप गरौं हामीले(2) <br> 
दिनेछन् हामीलाई मुक्ति प्रभु येशूले!<br> <br> 
--endofsong--


sno-19
<b>कति अचम्मको प्यार, ईश्वर सृजनाहार </b><br> 
<b>स्वर्गको सुखलाई त्यागेर आए पापी बचाउन तयार(2) </b><br> 
<br> 
1. नर रूप धारण गरेर उनले प्रचारे सुसमाचार(2) <br> 
पापीको पापको, दुःखी को दुःखको उठाए उनले भार(2)<br> 
आश्चर्यकर्म गरेर उनले देखाए महिमा अपार(2) <br> 
यी सबको बदली पाए उनले क्रूसैको गह्रौं भार(2) <br> 
<br> 
2. अन्तिम घडीमा गेतसमनीमा चेलागणसँग गए(2) <br> 
निरन्तर प्रार्थना गरेर उनले पसिना बगाए(2) <br> 
हुन सके यो कचौरा मदेखि हटाइ देऊ भनी(2) <br> 
तरै पनि तपाईंको इच्छा पूर्ण हवस् भने(2) <br> 
<br> 
3. येशू पक्डाइर्नु बारब्बा छुडाईनु, कहाँ थियो यो न्याय(2) <br> 
सिन्दुरेवस्त्र लगाए उनलाई क्रूसमा चढाउनलाई(2) <br> 
लड्दै गलगथा पुगे रोमीको मार खाई(2) <br> 
कष्टित पीड़ित प्रभुले आपनो प्राण दिइहाले, हाई(2)<br> 
<br> 
--endofsong--


sno-20
<b>अपार छ प्रभु, प्रेम कलवरीको वर्णन कसरी गरौं ? </b><br> 
<b>धन्यवाद खालि दिन्छु तपाईंलाई, अरू म के चढ़ाऊँ ? </b><br> 
<br> 
1. उद्धार गर्न म एक पापीको, क्रूस भारी बोक्नुभो,  <br> 
समर्पण गरी आदर, प्रशंसा, गिल्ला नै रोज्नु भो! <br> 
<br> 
2. श्रापित स्थान त्यो कलवरीमा, कोही थिएन प्रभुको, <br> 
तै पनि कत्रो उद्देश्य थियो, द्वार खोल्ने मुक्तिको! <br> 
<br> 
3. पापी पिलातुस अति नै निष्ठुर, दोष भेट्न चाहन्थ्यो, <br> 
चोर पनि त्यहाँ प्रभु तपाईंको निन्दा नै गर्दथ्यो!<br> 
--endofsong--


sno-21
<b>देखेका छौ के तिमीले मेरा मुक्तिदातालाई </b><br> 
<b>सुनेका छौ के तिमीले उनको मधुर वाणीलाई(2) </b><br> 
<br> 
1. धर्मीलाई त होइन तर, बचाउन आए पापीलाई, <br> 
मृत्युदेखि पार तारी, अनन्त जीवन दिनलाई(2) <br> 
<br> 
2. हामीलाई पीर के छ, चढे येशू क्रूसमा, <br> 
हात - खुट्टा झुण्डिए काँटीको गहिरो चोटसाथ(2) <br> 
<br> 
3. शिरबाट बग्यो रगत, उनिऐ भाला कोखामा,  <br> 
निर्दोष थिए प्रभुजी, सहनु थियो हाम्रो पाप(2)<br> 
<br> 
--endofsong--



sno-22
<b>प्रभु येशू खीष्टको अनमोल रगत मुटुमा सुरुरु(2) </b><br> 
<b>उहाँको माया नबिर्स बैनी, मन रुन्छ धुरुरु(2) </b><br> 
<br> 
1. म, तिमी, हामी सबैको लागि अपनो पुत्र दिएको(2) <br> 
त्यागेको प्राण समझना राखौं, रगतले लेखेको! <br> 
<br> 
2. रगतको धारो आलो छ बैनी, गलगथा पहाडमा(2) <br> 
तिम्रो र मेरो निम्तिमा गुर्थे काँडा त्यो शिरमा! <br> 
<br> 
3. बोकेका थिए दयनीय क्रूस, मनमा गुनन(2) <br> 
हृदयमा अङिक्त प्रभुको देन, तिमीले समझन! <br> 
<br> 
4. नभुलों बैनी, कष्टको घुटको, येशूले पिएको(2) <br> 
सबैले उद्धार पाउनलाई उनले प्राण दान दिएको! <br> 
<br> 
5. प्रभुका गुण नम्र र दीन, मुटुमा गाँसौ न(2) <br> 
ज्योतिका सन्तान बनेर फिरौं बोकेर बासना!<br> 
<br> 
--endofsong--

sno-23
<b>बौरी उठ्नु भएको प्रभुलाई जीवन भेटी चढ़ाउँछु </b><br> 
<b>पुनरूत्थान र जीवन प्रभु हो भनेर विश्वास गर्छ(2) </b><br> 
<br> 
1. हाम्रो पापको लागि प्रभु क्रूसमा टाँगिनुभो <br> 
वचनअनुसार तेस्रो दिनमा बौरी उठनुभ्यो! <br> 
अबउप्रान्त प्रभु येशूलाई क्रूसमा नै हेरौं! <br> 
जिउँदालाई मुर्दाहरूको बीचमा अब न खोजौं! <br> 
<br> 
2. चोरझै नै आउने प्रतिज्ञा छाडी प्रभु जानुभो! <br> 
प्रार्थना गर्दै जागा रहने सल्लाह दिनुभयो, <br> 
ज्योति जीवनको अपनाउनलाई उहाँमा रहनुछ <br> 
संसारको सुखशान्तिलाई होइन, प्रभुलाई हेर्नुछ!<br> 
<br> 
--endofsong--


sno-24
<b>चाँडै आउनेछन् येशू राजा(2) </b><br> 
<b>स्वर्गीय दूतगण साथमा लिई, बादलको सवारीमा आउनेछन् </b><br> 
<b>हल्लेलुयाह ( 4 ) मेरो येशू राजा फेरि आउनेछन्! </b><br> 
<br> 
1. साना - साना मोती सबलाई बेची असल मोतीलाई किनेजस्तो <br> 
विश्वास गर्ने हरेक सबलाई स्वर्गीय राज्य पनि हुन्छ यस्तो! <br> 
<br> 
2. लुकिएको गाड्धनलाई भेटी आपनो सारा भूमि बेचेजस्तो <br> 
किन्नेलाई त्यो बहुमूल्य भूमि स्वर्गीय राज्य पनि हुन्छ यस्तो!<br> 
<br> 
--endofsong--

sno-25
<b>अघि बढ्, खीष्टीय जवान हो </b><br> 
<b>समयलाई नपर्ख भाइ हो, हाम्रा दुलहा आउँदैछन्(2)</b><br> 
<br> 
1. अन्तिम चिह्न देखिंदै छ, भविष्यवाणी पूरा हुँदै छ(2) <br> 
सांसारिक जीवनलाई त्यागी आऊ प्रभुमा नयाँ भई(2) <br> 
<br> 
2. जीवन प्रभुमा अर्पण गरी सम्पूर्ण वचन पालना गरी(2) <br> 
प्रभुको यो क्रूस उठाई अघि बढ उनमा भई(2) <br> <br> 

3. जयवन्त जीवन बिताउँदै जाऊ प्रभुको काममा व्यस्त भई(2) <br> 
उनमा सदा आशा राख्दै बढ़ अझ थकित नभई(2)<br> 
<br> 
--endofsong--

sno-26
<b>याह्नेको लागि जय जय गरौं, आनन्दसाथ उनको सेवा गरौ </b><br> 
गाउँदै - गाउँदै उनको सामु आऔं, याह्ने ईश्वर भनी जानौ! <br> 
<br> 
<b>उनी हाम्रो सृजनहार, उनी हाम्रो तारणहार </b><br> 
<b>उनी हाम्रो पालनहार, सुन्छन उनले हाम्रो पुकार </b><br> 
<br> 
2. उनको खर्कका हामी भेड़ा हौं, धन्यवाद गर्दै ढोकाभित्र पसौं <br> 
स्तुति गर्दै आँगनमा पसौं, धन्य भनौं उनको नामलाई! <br> 
<br> 
3. याह्ने महान् प्रभु भलो छन्, उनको करुणा सदा रहन्छ <br> 
उनको सच्चाइ पुस्ता - पुस्तामा अमर रहनेछ!<br> 
<br> 
--endofsong--

sno-27
<b>गाऊँ खीष्टीय झुण्ड, सबै मिली, प्रभुको स्तुति </b><br> 
1. हृदय - वीणाको तार बजाई(2) स्तुति - महिमा देऊ मुक्तिदातालाई <br> 
आपनो सृजनहारलाई जयजयकार गरौं, स्वरमा स्वर मिलाई(2) <br> 
<br> 
2. ईर्ष्या र द्वेषको जाल फाड़ी(2) एकताको सून्नमा सबैलाई बाँधी <br> 
प्रेमको सन्देश बाँडी, कठिनाईलाई पार गरी(2) <br> 
<br> 
3. अन्धकार यो जगको ज्योति अनि(2) मिठास दिने नून बनी <br> 
हामी नून बनी, क्रूसलाई अल्याऔ साक्षी बनी(2)<br> 
<br> 
--endofsong--

sno-28
<b>प्रभु को स्तुति गरौं हामीले, प्रभु को स्तुति गरौं! </b><br> 
<br> 
1. प्रभुको बढाइँ सधै होइरहोस्, उनको स्तुति गरौं, <br> 
उनको स्तुति गरौं हल्लेलूयाह, उनको स्तुति गरौं! <br> 
<br> 
2. प्रभुको घरमा भजन होइरहोस्, उनको स्तुति बढाइ, <br> 
उनको स्तुति बढ़ाईं हल्लेलुयाह, उनको स्तुति बढाइ! <br> 
<br> 
3. सबै काममा कत्ति शक्तिमान, उनको शक्ति बताऊं, <br> 
उनको शक्ति बताऊ हल्लेलुयाह, उनको शक्ति बताऊ! <br> 
<br> 
4. जयको जोडमा फुक तुरही, वीणा, सारग्डी बजाऊं, <br> 
वीणा,सारग्ङी बजाऊ हल्लेलुयाह, वीणा,सारग्ङी बजाऊ! <br> 
<br> 
5. सितार बजाईं रागिनी छेड़, डफ र तबला बजाऊं, <br> 
डफ र तबला बजाऊ हल्लेलुयाह, डफ र तबला बजाऊ! <br> 
<br> 
6. मुरली, सनई राम्रो बजाऊ, छिड़छिड़ भयाली बजाऊं, <br> 
छिड़छिड़ भयाली बजाऊ हल्लेलुयाह, छिड़छिड़ भयाली बजाऊ! <br> 
<br> 
7. सबै मिली ताली बजाऊ, प्रभुको स्तुति गरौं, <br> 
प्रभुको स्तुति गरौं हल्लेलुयाह, प्रभुको स्तुति गरौं!<br> 
<br> 
--endofsong--

sno-29
<b>प्रभुजी, तिमीलाई के चढ़ाऊँ, यो मेरो सब जीवन तिमै हो </b><br> 
<b>धन्यवाद तिमीलाई छ सदा, स्तुति लेऊ मबाट सर्वदा! </b><br> 
<br> 
1. तिम्रो प्रेम उदेकको जो ममा प्रकट भो, <br> 
म अधर्मी पापीको, अधर्म क्षमा भो, <br> 
बढ़ाई होस् प्रभु येशूको! <br> 
<br> 
2. येशू खीष्ट राज गर्नु हरेकको हृदयमा, <br> 
चाहन्छन् डोर्याउन जीवनको बाटोमा, <br> 
छिटो आउ प्रभु येशूकहाँ!<br> 
<br> 
--endofsong--

sno-30
<b>सुनन साथी यो मीठो वचन मनैमा गुनन </b><br> 
<b>प्रेमैले ल्याएका मुक्तिको माला विश्वासमा उनन(2) </b><br> 
<br> 
1. यो भवसागर आँधीले पूर्ण, पापैले अँध्यारो(2) <br> 
अँध्यारो जगको खीष्ट मात्र हाम्रो मुक्तिको उज्यालो(2) <br> 
<br> 
2. संसारको ज्योति तारणहार ईशपुत्र पियारा(2) <br> 
प्यारा येशू शुद्धको निम्ति, मुक्ति को सहारा(2) <br> 
<br> 
3. सित्तैमा ल्याएको, सित्तैमा लैजाऊ भनेर यो प्रचार(2) <br> 
प्रचार भयो यो सुसमाचार बचाउन संसार(2)  <br> 
<br> 
4. शुद्धि को उपाय मुक्ति को हाम्रो खीष्ट मात्र प्यारो(2) <br> 
प्यारो जगको खीष्टमाथि हाम्रो मुक्ति को उज्यालो(2) <br> 
<br> 
5. विश्वास गर पापैलाई त्याग सुनेर संगाल(2) <br> 
भजन सुनी येशूलाई पछयाई सत्यलई अँगाल(2)<br> 
<br> 
--endofsong--


sno-31
<b>तिम्रो मनको ढोकामा येशू ढक्ढकाउँछन् </b><br> 
<b>खोल तिम्रो ढोका उनी आउन चाहन्छन्! </b><br> 

<br> 
1. हुन माग्दछन् उनी तिम्रो मित्र आज <br> 
तिम्रो शोक र फिक्री उनले उठाउन माग्छन्! <br> 
<br> 
2. आउन माग्छन् उनी भित्र तिम्रो मनमा <br> 
रात - दिन तिम्रो मनमा उनी माग्छन् बस्न! <br> 
<br> 
3. मधुर शब्दले भन्छन् मरें तिम्रोलागि  <br> 
छोड़ अशुद्ध कर्म खोल द्वार आउँदै छु! <br> 
<br> 
4. तिम्रो लागि मैले लगाए काँडे मुकुट <br> 
तिमीलाई म महिमाको मुकुट पहिराउँछु! <br> 
<br> 
5. खोल्दछु म ढोका मनको हे प्रभु येशु <br> 
आई यसमा रहनुहोस् माग्दछु म मनले! <br> 
<br> 
6. प्यारो येशु भन्छन् अब बिन्ती गर्दछु <br> 
समय जो गई गयो आउँदैन फकीं!<br> 
<br> 
--endofsong--


sno-32
<b>मन शुद्ध पार्नलाई येशूकहाँ गयौ के, खीष्टको रगतले शुद्ध भयौ के ? 
पूरा भरोसा येशूमा राच्छौ के, खीष्टको रगतले शुद्ध भयौ के ? 
तिमी शुद्ध भयौ के, त्राणकर्ता यीशू येशूको रगतले 
तिम्रो मन साँच्चै निष्कलंक भयो के ? येशूको त्यो अमोल रगतले ? 
</b>
2. दिनहुँ तिमी योशू साथ - साथ हिँड्छौ के ? उनको रगतले भयौ के ? 
येशू को आनन्द तिमीले पायौ के ? खीष्टको रगतले शुद्ध शुद्ध भएर ? 
</b>
3. खीष्ट आउदाँ तिम्रो लुगा साफ होला के ? खीष्टको रगतले साफ र उज्जवल ? 
तिमी स्वर्ग जानलाई तयार छौ के ? खीष्टको रगतले शुद्ध भएर ?! 
</b>
4. पापको दाग लागेको वस्त्र फुकाइदेऊ खीष्टको रगतले शुद्ध हुन आऊ ? 
पापी मन चोख्याउने धारा बग्दैछ खीष्टको रगतले शुद्ध होइजाऊ ?
</b>
--endofsong--

sno-33
<b>जगत् संसार केही पनि छैन सुन दाज्यू - भाई(2) 
विश्वास गरौं हामी सबले, मुक्ति पाउनलाई(2) 
<b>खीष्ट येशू छन् ( 3 ), तयार मुक्ति दिनलाई </b>
</b>
2. लोभै गछौं, लालच गछौं संसारको थोकलाई(2) 
यी सबै थोक केही पनि होइन साथमा जानलाई(2) 
</b>
3. आऊ सबै फिक्री गरौं मुक्ति पाउनलाई(2) 
येशूबाहेक अरू छन् छैन केही उपाय(2) 
</b>
4. आऊ सबै दाज्यू - भाई हो, सुन मन लगाई(2) 
खीष्ट येशू तारणहारको निम्तो छ सबलाई(2)
</b>
--endofsong--

sno-34
<b>अँध्यारो जगत्मा ज्योति फैलाई उज्जवल प्रभु येशू प्रभु! </b>
</b>
1. तिमीले अधर्म पापलाई क्रूसमा मेटाइदियौ  
क्रूसको दुःखलाई सहेर पापीलाई मुक्त गरायौ 
गाइरहेछौं तिम्रो सर्वगुणगान, सम्झिरहेछौं याद मधुरो प्रेम! 
</b>
2. निराश जीवन लिएर वितिरहेथ्यौ त्यसै 
शुष्क हृदयको तानमा जीवित आशा दिलायौ 
गाइरेहेछौं तिम्रो सर्वगुणगान, सम्झिरहेछौं याद मधुरो प्रेम! 
</b>
3. पापमय जीवनलाई त्यागेर आत्माको दीप जलाउँछौ 
स्वर्गीय आशिष, लिएर स्तुति आराधना चढाउँछौ 
गाइरेहेछौं तिम्रो सर्वगुणगान, सम्झिरहेछौं याद मधुरो प्रेम!
</b>
--endofsong--

sno-35
<b>आहा, कति मीठो वचन, प्रभुले दिए को रचना(2) </b>
</b>
1. जब म वचन पढ्दछु झन् ठूलो इच्छा बढ्दछ 
जब म वचन सुन्दछु तब मन खुशीले भर्दछ! 
</b>
2. जब म पापले भरेथे तब अन्धकारले छोपेर्थे 
प्रभुले मलाई बोलउनुभो अनि खुशीको खबर सुनाउनुभो! 
</b>
3. म, तिमी, हामी, सबै पापी थियौं अनि साँचो प्रभुलाई चिन्दैनथ्यौं 
प्रभु आए आफै स्वर्ग छोडेर, हाम्रोलागि उज्यालो ज्योति बनेर! 
</b>
4. क्रूसमा प्रभु मर्नुभयो, हाम्रो पापको भार उठाउनुभयो 
मृत्युबाट प्रभु बौरी उठ्नभो र हामीलाई स्वर्ग को ढोका खोल्नुभो! </b>

5. आऊ दाज्यू - भाइ, दिदी - बहिनी, प्रभुको मीठो वचन पढ्न 
आफ्ना पापलाई हटाई साँचो प्रभु येशूमा विश्वास गर न!
</b>
--endofsong--

sno-36
<b>सुसमाचार आज यो, हे मित्र तिम्रोलागि हो(2) </b>
</b>
1. सुनन साथी, के मीठो वाणी भनेको येशूले(2) 
आऊन सबै थाकेको प्राणी, संसारमा पापैले(2) 
</b>
2. छैन अर्को स्वर्ग जाने बाटो येशू मसीहसिवाय(2) 
कारण उनैले प्राण क्रूसमा त्यागे, पाप बन्धन तोड्नलाई(2) 
</b>
3. आऊन साथी, निशानी राख प्रभु को क्रुसैलाई(2) 
छोडिदेऊ माया, छोडिदेऊ फिक्री, स्वर्गलोक जानलाई(2)
</b>
--endofsong--


sno-37
<b>भाइ-बहिनी, पापलाई धोई मागन येशूको रगतले! </b>
</b>
1. समय पूरो भइगयो परमेश्वरले राज्य गर्ने 
मुक्ति उद्धार पाउनेछन् जसले विश्वास गर्ने! 
</b>
2. स्वर्गबाट ओर्लिआए मानिस चोला लिएर 
पापको बन्धन खोलिदिए आपनै रगत दिएर! 
</b>
3. कलवरी डाँडैमा क्रूसमा झुण्डाई मारे
तिम्रो हाम्रो पापको साटो रगतको धारा बगाए! 
</b>
4. समय छैन भाइ - बहिनी चाँडै उठिआउनुहोस् 
सुसमाचारलाई विश्वास गरी उद्धार मुक्ति पाउनुहोस! 
</b>
5. पापको भवसागरमा रहन्छौ कति दिन 
प्रभु येशू तयार छन् पार तारिदिन! 
</b>
6. साँचो अनि एउटै मात्र स्वर्गीय अमर प्रेमलाई 
आज अनि यसै घड़ी माग पाउनलाई!
</b>
--endofsong--

sno-38
<b>छेन भरोसा यो जिन्दगीको(2), गरौं भजन अब येशूजीको(2) </b>
</b>
1. बालककाल बित्यो खेलैमा खेली, जवानी बित्यो प्रेमैमा भुली 
वृद्धकाल बित्देछ जञ्जालमा डुबी, गरौं भजन अब येशूजीको! 
</b>
2. जञ्जालमा डुबीरहन्छौ कति, चेत गरी अब सुधार गति 
छैन बेला भाइ अब अति, गरौं भजन अब येशूजी को! 
</b>
3. पाप र संताप बढ्दछन् जति हुनेछन् नष्ट जीवन उति 
फर्काऊ मन अब येशूपट्टि, गरौं भजन अब येशूजीको!
</b>
--endofsong--

sno-39
<b>मित्र, तिमीलाई यो खबर छ चाँडै नै प्रभु आउनुछुन्छ </b>
<b>सुसमाचार सुनी राख, आपनो आत्मालाई बचाऊ आज! </b>
</b>

1. तिमी भन्छौ समय छ मेरो(2), तर समयचैं बितिसक्यो 
प्रभुलाई ग्रहण गरिहाल, नत्र अन्तमा रुनु पर्ला(2) 
</b>
2. अहिले सुनी भरे नभुल(2), सुसमाचार यो मनैमा गुन 
तिमी आफैलाई जाँचिहाल, आफ्नो आत्मालाई बचाऊँ आज(2) 
</b>
3. मित्र प्रभुमा विश्वास गर(2), आज नै उनका अघि बढ़ 
तिम्रो पापलाई धोईदिनुहुन्छ, उनकै सन्तान बनाउनुछुन्छ(2)
</b>
--endofsong--

sno-40
<b>कहाँ जाँदैछौ तिमी, फर्केर आऊ प्रभुमा </b>
<b>छैन अब ता समय, बियाँलो नगरी प्रभु येशूलाई विश्वास गर(2) </b>
</b>
1. गाइरेहेछौ तिमी कहाँ, थाहा छ के तिमीलाई ? 
पुग्छौ कहाँ तिमी, कुन बाटोमा जाँदैछौ ? 
येशूमा आऊ अहिले नै, पर्खिरहनेछन तिमीलाई! 
</b>
2. बाँचेको छ के आत्मा, विचार गरेका छौ के ? 
यसकारण आऊ चाँडै नै, आत्माको फिक्री गरी ? 
पखिरहेछन् येशू आत्मा बचाउन तिम्रो! 
</b>
3. नगरी ढिलो अब, समय हुँदै चाँडै आऊ 
उनले स्वर्ग लान चाहन्छन्, विश्वास गर्यो भने मात्र 
पर्खिरहनेछन् येशू, अबेर नगरी आऊ!
</b>
--endofsong--


sno-41
<b>लौ सुन साथी, सत्यको वाणी, यो तिमै लागि हो </b>
<b>गरीब - धनी सबैको लागि, जीवनको पानी हो, </b>
<b>ईश्वरको पुत्र, आएथे धरती, कोहीले चिनेन </b>
<b>पापीलाई मुक्तिदान दिन मरे, यो कुरा बुझ लौ </b>
</b>
1. माया र मोह बाँचुन्जेलसम्म, संसारमा दुइ दिनको, 
धर्म र कर्म, सबै व्यर्थ छन्, यों तिमी बुझ लौ(2) 
शिरमा मुकुट काँडाको लाई, झुण्डिए क्रूसमा 
पापीलाई मुक्तिदान दिन मरे, यो कुरा बुझ लौ! 
</b>
2. बाँच्नलाई मान्छे सधैं नै खोच्छ, जीवनको सहारा 
पापको वशमा डुबेको मान्छे, एउटै छ किनारा(2) 
बाटो र सत्य, जीवन छ है खीष्ट येशू प्रभुमा 
विश्वास गरी, हे मेरा साथी, जीवन लेऊ उनैमा!
</b>
--endofsong--

sno-42
<b>साथी दिन धेरै ढलिसक्यो, पश्चात्तापको बेला बितिसक्यो </b>
<b>सुसमाचार सुनाउन जाने हो कि क्रूसलाई नै अङाग्लिबस्ने हो ? </b>
</b>

1. येशूको जीवनलाई हेर, सरलताको सजीव शक्ति हो(2) 
साँचो मानव जीवनको मात्र एउटा उदाहरण हो! 
उहाँकै नजरमा तर हाम्रो अवस्था कस्तो कस्तो छ! 
सोचिदेऊ एक क्षण आज तिमी, स्वर्गीय प्रेम किन सस्तो छ! </b>

2. भन्छन् सबै मानव यहाँ मातिएर दानव हुन्छ(2) 
माया नपाई रुन्छन् भने पाएर फेरि सुस्ताउँछन्  
माया प्रभुको असीमित छ, चेतना हाम्रो कहाँ हरायो 
अनुग्रह उनको सदा छ, जोश हाम्रो किन सेलायो ?
</b>
--endofsong--

sno-43
<b>लौ दाजु सुनन, लौ बहिनी सुनन, येशूको वचन </b>
<b>मनैमा गुनन, बुझिराख हृदयमा, चिनिराख येशूलाई </b>
</b>
1. कलवरी डाँडामा त्यो एउटै क्रूसैमा(2) 
मुक्तिदाता येशूको त्यो शुद्ध रगतमा 
त्यो मुक्ति तिप्रैलागि हो!(2) 
</b>
2. जीवन हाम्रो छोटो छ है, लामो जीवन येशूमा(2) 
बुझिराख आज नै, नत्र भोलि समय छैन 
हाम्रो येशू आउनै लागेछन्!(2)
</b>
--endofsong--


sno-44
<b>रगतले रगतले येशूको रगतले(2) </b>
</b>
1. मेरो पापलाई क्षमा गरिदेऊ(2) 
</b>
2. मेरो पापको दागलाई मेटाइदेऊ(2) 
</b>
3. पूर्ण शान्ति मनमा भरिदेऊ(2) 
</b>
4. शैतानमाथि विजयी हुनदेऊ(2) 
</b>
5. नित्य प्रार्थना गर्ने साहस देऊ(2) 
</b>
6. स्वर्गीय ज्योतिको राजमा पस्न देऊ(2)
</b>
--endofsong--


sno-45
<b>जीवनको के भरोसा दुइ दिनको जीवन खेलमा </b>
<b>प्रभुको स्तुति गाऔं ( 3 ) </b>
</b>
1. आशा गर्दछौ व्यर्थमा यो विद्या, बुद्धि, धनमा(2) 
लिए र घमण्ड मनमा लाभ हुन्न यो जीवनमा(2)
</b>
2. हे खीष्टीय लोग हो, जाग पापमय जीवनलाई त्याग(2)
स्वर्गीय आशिष् माग, प्रभुको निम्ति जाग(2) 
</b>
3. करुणा - सागर येशू, उनी हुन् हाम्रो सहारा(2) 
प्रभुकहाँ हामी जाऔं, प्रभुको स्तुति गाऔ(2)
</b>
--endofsong--

sno-46
<b>प्रभुजी, अर्जी मेरो सुनिलेऊ, लौ है चढ़ाएँ, </b>
</b>प्रभु जी, लौ है आज चढ़ाएँ, लौ है चढ़ाएँ,</b>
<b>प्रभु जी, मनको मैलो धोइदेऊ, लौ है चढ़ाएँ!</b>
</b>
1. संसारै छ पापैले भरेको(2) धनको लोभमा सबै परेको(2)
 लौन बिन्ती आज मैले चढाएँ(2) 
 </b>
2. संसाररूपी समुद्र चौड़ा छ(2) जीवनरूपी नाउ पुरानो छ(2)
लौन मेरो नाउलाई पार लगाइदेऊ(2) 
</b>
3. राता – सेता फूलै फुलेका(2) मायाजालमा दुनियाँ भुलेका(2)
लौन जगको मायाजाललाई फुकाइदेऊ(2) 
</b>
4. डाँडापारि घामै डुबिगो(2), चारै दिशा घोर अन्धकार भो(2) 
लौन अन्धकारमा मलाई ज्योति देऊ(2)
</b>
--endofsong--

sno-47
<b>नसम्झ यहाँ यो जीवन हाँसेर मात्र बाँचेको </b>
<b>सोचन मनमा आफैलाई, छ तिम्रो आत्मा बाँचेको </b>
<b>निर्णय आजै नै गरिदेऊ, भोलि त अबेर भईजाला </b>
<b>नभए एक दिन यो जीवन रोइ रोइ यहाँ रहिजाला(2) </b>
</b>
1. लुकाइराख्छौ तिम्रो पाप, बोकेर कहाँ लान्छौ र ? 
बिसाउन बरु तुरुन्तै लिएर कहाँ जान्छौ र ?(2)
गोरेटो सानो सुरिलो कलवरी डाँडा पुग्नलाई 
नमान संकोच यो मनमा ईश्वरको सामु झुक्नलाई! 
</b>
2. रगतको थोपा आलो छ गलगथाको बाटोमा 
प्रभुले बोके दयनीय क्रूस, हाम्रो पापको साटोमा(2) 
बलिदान यहाँ जीवनको कष्ट र पीर मुटुमा 
सहेको छ है उनैले तिम्रो र मेरो निम्तिमा!
</b>
--endofsong--

sno-48
<b>सम्झिदेऊ आज नै ईश्वरलाई, भुलिदेऊ आज नै संसारलाई </b>
<b>भुलेर नजाऊ संसारमा गन्धक र आगो जल्दैछ(2) </b>
</b>
1. पाप गर्दै व्यर्थमा हामीले, संसारमा भुलिरहेछौं(2) 
दुनियाँलाई भुलेर आज नै, सम्झिदेऊ आज नै ईश्वरलाई(2) 
</b>
2. संसारको रीतिरिवाजले दुइ - चार दिन केवल राज गर्छन्(2) 
तपाई र मेरा ईश्वरले अनन्त काल तक राज गर्छन्(2) 
</b>
3. सांसारिक धेरै मार्गले डरलाग्दा सागरमा पुन्याउँछन(2) 
जीवनको हरेके मार्गमा प्रभुले हामीलाई डोन्याउँछन(2)
</b>
--endofsong--


sno-49
<b>जान्दिनँ म परमेश्वरले प्रेम किन गर्नुभो 
वा खीष्टले किन बचाए अयोग्य प्राण मेरो! 
</b>
<b>तर कसमाथि विश्वास राखें सो जान्दछु म र निश्चय छु म </b>
<b>कि उनलाई जे मैले सुम्पें, राख्नेछन् सुरक्षासाथ </b>
</b>
2. जान्दिनँ कसरी बचाउने विश्वास दिए उनले 
वा उनको वचन पत्याउँदा मनमा शान्ति पाएँ!
</b>
3. जान्दिनँ कसरी आत्माले जग दोषी ठहर्याउँछन् 
वा वचनद्वारा येशूलाई प्रकट गराउँछन्! 
</b>
4. जान्दिनँ के आइपर्नेछ म मर्नभन्दा अघि 
कि हुन्छ मलाई दुःख वा सुख, तृप्ति व गरीबी! 
</b>
5. जान्दिनँ म कहिले, कहाँ येशू फेरि आउलान्  
कि मरेपछि भेटूला कि भेटू आकाशमा!
</b>
--endofsong--

sno-50
<b>येशू हुन् मेरो कस्तो विलास, दिँदछन् मनमा महिमाको आश 
मुक्तिको भागी स्वर्ग मेरो घर, उनमा म बस्छु सधैं निडर! 
</b>
<b>यो मेरो हाल छ, यो मेरो गान, गर्छ प्रशंसा प्रतिदिनै(2) </b>
</b>
2. पूरा भरोसा, आनन्द र सुख, अब मेरो मनमा न शोक न दुःख 
खीष्टबाट भयो दयाको ज्ञान, दूतगण अब गर्छन् प्रेमको बखान! 
</b>
3. बिश्वास म राख्छु, खीष्ट मेरो नाथ, उनैमा बस्छु सुरक्षासाथ 
उनैमा प्रेमले पाउँछु विश्राम जानेछु अन्तमा स्वर्गीय देश!
</b>
--endofsong--

sno-51
<b>येशू छेउ म जानेछु ज्योतिमा, ज्योतिमा,
 उनके साथ म हिँड्नेछु उनकै ज्योतिमा! 
 </b>
<b>हिँड्नेछु म ज्योतिमा ( 3 ) </b>
<b>हिँड्नेछु म ज्योतिमा, उनकै ज्योतिमा! </b>
</b>
2. क्षमा निश्चय पाउनेछु ज्योतिमा, ज्योतिमा, 
सबै पापलाई छोड्नेछु उनकै ज्योतिमा!
</b>
3. खीष्ट कै सेवा गर्नेछु ज्योतिमा, ज्योतिमा, 
सबै सामर्थ पाउनेछु उनकै ज्योतिमा! 
</b>
4. शैतान गर्न सक्छ के ? ज्योतिमा, ज्योतिमा, 
जयवन्त हुनेछु निश्चय उनकै ज्योतिमा! 
</b>
5. मृत्यु जब आउनेछ ज्योतिमा, ज्योतिमा, 
मलाई केको डर हुन्छ उनकै ज्योतिमा! 
</b>
6. जब स्वर्गमा पुर्नूला ज्योतिमा, ज्योतिमा, 
तब आनन्द मनाउँला उनकै ज्योतिमा!
</b>
--endofsong--

sno-52
<b>वन - पाखा गुञ्जाइदेऊ है मुक्तिको एउटा गीतले </b>
<b>सत्यको सन्देश भनिदेऊ गीतको भाकाले(2) </b>
</b>
1. पापको श्राप मेट्नलाई येशूजी आउनुभो 
मान्छेलाई नयाँ रूप दिन रगत बहाउनुभयो(2) 
स्वर्गको ढोका खोलेछ उनैको कृपाले 
माया गरेर पापीहरूलाई उनैले बचाए 
बताइदेऊ सबैलाई, बुझाइदेऊ सबैलाई, सम्झाइदेऊ सबैलाई 
</b>
2. हारको जीवन छैन यहाँ अन्धेरी जगत्मा 
बेमोल छैन मान्छे सब धरतीको आँगनमा(2) 
खोज्नेहरूलाई जीवन छ कलवरी पाखामा 
के नै पो थियो, मान्छको मोल आपनै आँखामा 
बताइदेऊ सबैलाई, बुझाइदेऊ सबैलाई, सम्झाइदेऊ सबैलाई!
</b>
--endofsong--

sno-53 
<b>हेर्नेछु येशू राजालाई ( 3 ) म सधैं हेर्नेछु! </b>
</b>
1. प्रार्थनामा हेर्नेछु येशू राजालाई ( 3 ) म सधैं हेर्नेछु! 
</b>
2. स्वर्गदूतका बीचमा येशू राजालाई ( 3 ) म सधै हेर्नेछु! 
</b>
3. शैतानमाथि जय हुने येशू राजालाई ( 3 ) म सधै हेर्नेछु! 
</b>
4. आपनो प्राण क्रूसमा दिने येशू राजालाई ( 3 ) म सधैं हेर्नेछु! 
</b>
5. आपनो रगत बहाइदिने येशू राजालाई ( 3 ) म सधै हेर्नेछु! 
</b>
6. कुटाई, निन्दा सहने येशू राजालाई ( 3 ) म सधै हेर्नेछु! 
</b>
7. मृत्युदेखि बौरी उठ्ने येशू राजालाई ( 3 ) म सधैं हेर्नेछु! 
</b>
8. मलाई मुक्ति दिने येशू राजालाई ( 3 ) म सधैं हेर्नेछु! 
</b>
9. पूरो शान्ति दिने प्रभु येशू राजालाई ( 3 ) म सधै हेर्नेछु! 
</b>
10. पवित्र आत्मा दिने, प्रभु येशू राजालाई ( 3 ) म सधैं हेर्नेछु! 
</b>
11. राजाहरूका राजा येशू राजालाई ( 3 ) म सधै हेर्नेछु!
</b>
--endofsong--

sno-54
<b>सम्पूर्ण जीवन मेरो प्रभु तपाईकै हो </b>
<b>राज गर्नुहोस् सदा तपाईंको पूर्ण होस् इच्छा!</b> 
</b>
1. महान् प्रभु तपाईको प्रेम अति गहिरो 
सागर भन्दा चौड़ा छ यो, आसमानभन्दा उच्च यो, 
निकम्मालाई चुनेर जीवन दान दिनभयो, 
इच्छा, आशा, उदेश्य प्रभु तपाई नै हो मेरो(2) 
</b>
2. दूतगणले गर्थे तपाईको स्वर्गमा महिमा 
मानिसले गरे उनको निरादर र निन्दा, 
स्वर्गमा बस्ने येशू, पिताको दाहिने हात, 
मानिसले राखे श्रापित क्रूसमा दुइ चोरको साथ(2)
</b>
--endofsong--

sno-55
<b>हे येशू तिम्रो प्रेम, कति महान् छ! </b>
<b>आकाशको तारा, पर्वत समुद्र, सबभन्दा महान् छ(2) </b>
</b>
1. अगम्य आनन्दले हृदय भरपूर छ, प्रभुको कार्य नै धेरै महान् छ 
हरेक साँझ, हरेक बिहान स्तुतिको योग्य छ(2) 
</b>
2. संकटको समयमा जीवन निराश हुन्छ, हे इश्वर पुकार्छदया मलाई दर्शाऊ 
बोलाउनभन्दा पहिला नै भन्छन् म तिम्रो साथ छ(2) 
</b>
3. अन्धकार घाटीमा मलाई हिँड्नुछ, मृत्यु र जोखिमको धेरै नै यात्रा छ  
गोठालो भई प्रभु डोन्याउनुहुन्छ अनन्त साथी भई(2) 
</b>
4. घटी र कमी को मलाई के ही डर छेन, हरियो चउरमा मलाई निर्धक्क छ 
भोजन - जलले तृप्त म हुन्छु, खीष्ट मेरो साथ छन्(2) 
</b>
5. ईश्वरको भवनमा स्तुति सधैं गर्छ, सम्पूर्ण हृदयले उनलाई सधैं भज्छु, 
स्तुति - प्रशंसाको योग्य परमेश्वर हल्लेलुयाह आमिन्(2)
</b>
--endofsong--

sno-56
<b>कृतज्ञ भई, शिर झुकाई जीवन चढाउन आएकोछु  </b>
<b>अमूल्य भेट अरू के छ र ? जीवन मेरै अर्पेको छु(2) </b>
</b>
1. टाढो जाँदा प्रेमलाई भुली, घायल हुन्छ मन प्रभुको(2) 
हुन्छु नजीक तिम्रो नै सक्तिनँ म जान टाढो(2) 
</b>
2. मनलाई खिँच्ने वैभव जगत्का, विलास बन्लान् बाधक मेरा(2) 
खीष्टको अद्भुत प्रेमैको निम्ति त्याग्छु यिनलाई मनैबाट(2) 
</b>
3. प्रेम छ अगाध प्रभु तिम्रो नै, बयान गर्ने शक्ति छैन(2) 
अनन्तकाल सेवा नै गरू, यस प्रेमबाट उऋण म हुन्नँ(2) 
</b>
4. जगको निम्ति जिउँदिनँ, प्रभु, न ता जिउँछु आपनै निम्ति(2) 
सक्तिनँ म अर्पण नगरी छोटो जीवन तिम्रो नै निम्ति(2) 
</b>
5. दुःखित छु म समयको निम्ति बितेथ्यो जो रहँदा पापमा(2) 
बाँकी जीवन कृतज्ञतामा अर्पित होस् प्रभुकै सेवामा(2)
</b>
--endofsong--

sno-57
<b>आउँदछु तपाईंको चरणमा,पर्दछु तपाईंको शरणमा </b>
<b>पापको बोझ छ जीवनमा, हटाई बस्नुहोस, हृदयमा </b>
</b>
1. सिकाउनुहोस् मलाई प्यार गर्न तपाईंलाई(2) 
प्रभु मलाई तपाईंले प्यार गर्नुभो पहिले(2) 
</b>
2. समाती मेरो हात राख्नुहोस् मलाई साथ(2) 
जीवनको ज्योति दिई चम्काउनुहोस् मलाई(2)
</b>
--endofsong--

sno-58
<b>प्रभु तिम्रो स्तुति गर्छु तिम्रो महिमा गाउँनेछु(2) </b>
</b>
1. तिम्रो चरणमा हे प्रभु(2), हृदय भेटी चढा़उँदै छु(2) 
</b>
2. पूरो मनले बिन्ती गर्छ(2), तिम्रो दर्शन में पाऊँ(2) 
</b>
3. येशूको रूप ममा होओस्(2), उनकै गुण देखाउनलाई(2) 
</b>
4. तिमै वचनले हे प्रभु(2), नयाँ जीवन पाउनेछु(2) </b>

5. प्रभु शक्ति देऊ मलाई(2), तिम्रो वचन सुनाउनलाई(2)
</b>
--endofsong--

sno-59
<b>जीवनको यात्रामा डोन्याउनुहोस् मलाई </b>
<b>तपाईंको बाटोमा, तपाईंको बाटोमा </b>
</b>
1. म अधर्मी पापी चरणमा आएँ, यो जीवन लिनुहोस्(2) 
तपाईको निम्ति जिउनेछु प्रभु, शक्तिदान दिनुहोस्(2) 
</b>
2. तपाईंको गहिरो वचनको अर्थ मलाई सिकाउनुहोस्(2) 
 ज्ञान, बुद्धि, विवेक, पवित्र आत्मा, दान मलाई दिनुहोस्(2)
 </b>
--endofsong--


sno-60
<b>अग्ङ् - प्रत्यग्ङ्का मालिक म गर्छ प्रणाम् </b>
<b>धन्य धन्य सूटिकर्ता अमर छ तिमै नाम(2) </b>
</b>
1. तिम्रा सृष्टि यी दुई हात छन् कति राम्रा 
तिम्रा सृष्टि यी दुई पाउ छन् कति राम्रा  
यी मेरा हात, यी मेरा पाठ अङ्ग हुन् तिम्रा 
जे गरूँ म, जहाँ जाऊँ म, होस् तिमै महिमा(2) 
</b>
2. तिम्रा सृष्टि यी दुई कान छन् कति राम्रा 
तिम्रा सृष्टि यी दुई ओठ छन् कति प्यारा 
यी मेरा कान, यी मेरा ओठ अग्ङ् हुन् तिम्रा 
जे सुनँ म, जे बोलू म, होस् तिमै महिमा(2) 
</b>
3. तिम्रा सृष्टि यी दुई आँखा छन् कति राम्रा 
अन्धो हुन् त मनका आँखा छन् ती चनाखा 
छन् जो मेरा यी दुई आँखा अग्ङ् हुन तिम्रा 
जहाँ जे जति देखें मैले, होस् तिप्रै महिमा(2) 
</b>
4. ज्ञान र बुद्धि जति मेरा हुन् यी तिमै दान  
अग्ङ् - प्रत्यग्ङ् प्यारको तिम्रो रहेको छ निशान 
श्वास - प्रश्वासबाट मेरो, निस्कोस् तिमै नाम 
मेरो यी सर्वाग्ङ्बाट, होस् तिमै काम(2)
</b>
--endofsong--

sno-61
<b>येशूलाई म सब थोक दिन्छु, सबैथोक अर्पण गर्छु 
प्रतिदिन तपाईंको साथमा प्रेम र विश्वासमा बढ्छु! </b>

<b>सब थोक दिन्छु, म सब थोक दिन्छु म </b>
/b>मुक्तिदाता तपाईंलाई सब थोक दिन्छु म </b>
</b>
2. येशूलाई म सब थोक दिन्छु,   दण्डवत् गर्छु तपाईलाई 
सांसारिक इच्छा म छोड्छु तपाई लिनुहोस् मलाई! 
</b>
3. येशूलाई म सब थोक दिन्छु, आपनै बनाउनुहोस् मलाई 
पवित्रात्मा हवस् साक्षी खीष्ट हुन् मेरा खीष्टकै! 
</b>
4. येशूलाई म सब थोक दिन्छु, मेरा जीवन लिनुहोस् 
प्रेम र शक्ति ममा भर्नोस्, आशिष्ले भरपूर गर्नोस्!
</b>
5. येशूलाई म सब थोक दिन्छु, पवित्रात्मा याद गर्छु  
पूरा मुक्तिमा खुशी छु, उनको नाउँको जय गाउँछु!
</b>
--endofsong--

sno-62
<b>हे प्रभु, गर्न दर्शन तिम्रो, आएका छौं हामी आशा लगाई </b>
<b>हे प्रभु गर्न... </b>
</b>
1. मनलाई आपनातिर लगाईदेऊ(2), नापविना आशिष् खनाईदेऊ! 
</b>
2. आपनो पूर्ण ज्ञान लौ देऊ(2), स्वर्गीय वाणी आज लौ सुनाईदेऊ!
 </b>
3. खाली होस हृदय प्रभु मेरो(2), मोह लोभ औ क्रोध मेटाईदेऊ! 
</b>
4. सबै अशुद्धतालाई धोइदेऊ(2), क्रूसको मुनि स्नान गराइदेऊ! 
</b>
5. क्रसको वेदीमा आदरसाथ आउँछौं(2), तन - मन - धन सबै भेटी चढाउँछौं!
</b>
--endofsong--

sno-63
<b>हृदय भेटी चढाऔं प्रभुलाई, स्तुति जयगान पनि, </b>
<b>हामी सब सन्तगण मिली(2) </b>
</b>
1. पापको भार उठाउन, आए खीष्ट नरलोकमा(2) 
पापी जन सबको पाप मेटाई(2), जीवन सनातन दिन! 
</b>
2. असाध्य दुःख उठाए, नम्र र दीन बनी(2) 
खोली उद्धारको द्वार प्रभुजी(2), अमर आशा दिलाई! 
</b>
3. धन्य स्वर्गीय त्यो प्रेम, हामी अधर्मीप्रति(2) 
नभूलौं फेरि दुष्ट बनेर(2), संसारमा फेरि फर्की! 
</b>
4. समर्पण गछौं तपाईंलाई प्राण आत्मा हृदय पनि(2) 
रक्षा गर्नुहोस् यो जीवनको(2), विनय छ, हाम्रो यही!
</b>
--endofsong--

sno-64
<b>मन मेरो लिनुहवस् येशू तपाईंले यसलाई बनाउनुभो </b>
<b>यसमा तपाई आपनो घर बनाउनोस्, जसको लागि यो बनाउनुभों! </b>
</b>
1. दुनियाँको सब कुरा निकाल्नोस्, यसलाई शुद्ध पवित्र गर्नुहोस्  
अशुद्ध मैलो पापलाई धोईकन त्यो रगतले जो बहाउनुभो! 
</b>
2. जब पढ्छु पवित्र वचन जसको बाटो छ सच्चाईको 
बाटो सत्य जीवन देखाईकन विश्वास अनि आशा बढाउनभो! 
</b>
3. धेरै साल तपाईंदेखि थिएँ दूर, लापरवाहीले नै गरे दूर 
अनुग्रह, प्रेम, दयाको वरदानले धीरज धरी मलाई देखाउनुभो! 
</b>
4. आत्मा शुद्ध होस् धोईकन पवित्र आत्माको बप्तिस्माले! 
हर समय, हर जग्गा साक्षी दिऊँ, जस्तो तपाईले नै सिकाउनुभो!
</b>
--endofsong--

sno-65 
<b>मेरो जीवन यो प्रभु तिमै हो, मेरो आशा - उमंग, प्रभु तिमी नै </b>
<b>तिमै बनी म रहिरहूँ अब बिन्ती यही छ सदालाई  </b>

1. मेरो जीवन यस्तो थियो कि झरेको फूल, 
अन्योलमा बाँचेको भूलै - भूल, 
रित्तिएको जिन्दगीमा केही थिएन सार 
मेरो निम्ति आशा केवल हारै - हार, 
मैले जोश पाएँ, मैले होश पाएँ, सब दोषको माफ प्रभुमा पाएँ(2) 
</b>
2. दामी - दामी सम्झेका ती जे - जति थिए 
मेरो निम्ति ती सबै नै भार भए! 
जहाँ - जहाँ खोजिहिँडे चाहिएका बात 
मेरो निम्ति केही रहेन, सधै रित्तो हात, 
मैले सत्य जीवन र शान्ति खोजें, येशूमा बाहेक कहीं पाइनँ(2)
</b>
--endofsong--

sno-66
<b> म हुँ एउटा रित्तो भाँडो, फुस्रो माटोले बनेको, </b>
<b>कटी - पिटी, काटी - छाँटी, तपाईंको इच्छाअनुसारको </b>
<b>भाँडो मलाई बनाउनुहोस(2) </b>
</b>
1. म छु मैलो कट्कटेको, सर्वाग्ङ् मेरो धुनुहोस्(2) 
तपाईंको गुणले भरेर, बल्दो साक्षी बनाउनुहोस्(2) 
</b>
2. पवित्रात्मा पलपलमा मलाई नम्र तुल्याउनुहोस्(2) 
कदम - कदममा डोर्याउँदै, प्रार्थनाको जीवन दिनुहोस्(2) 
</b>
3. येशू तपाईंको भाँडो हुँ, अति थकित र कमजोर छु(2) 
तपाईंको सामर्थी हातले, समातेर चलाउनुहोस्(2)
</b>
--endofsong--

sno-67
<b>तोड़फोड़ गरी जोड्नुहोस् फेरि खीष्ट स्वयं जिउनुहोस् </b>
<b>सृष्टि अधिको इच्छा तपाईको, हे प्रभु पूर्ण होस्! </b>
</b>
1. स्वार्थमय जीवन जिएर कति तपाईलाई रुवाएँ(2) 
तपाईंको आज्ञा तोडेर मैले धेर काँडा उमारें 
ती काँडाबाट एक मुकुट बनाई प्रभुलाई पहिर्याएँ 
पाप गर्दै यहाँ बाँचेर कैयों बार क्रूसमा चढाएँ! 
</b>
2. जिउन चाहन्नँ हारेको जीवन खीष्टरहित भएर(2) 
जिउन चाहन्छु जयवन्त जीवन खीष्टभित्र भएर 
यसकारण प्रभु हारपूर्ण जीवन तपाईंलाई अर्पन्छु 
मेरो सट्टामा येशू जिउनुहोस् यो विनय बिसाउँछु!
</b>
--endofsong--

sno-68
<b>याह्ने मेरो गोठालो, मलाई केही घटी हुँदैन </b>
<b>उनले हरियो खर्कमा मलाई चराउनेछन् </b>
</b>
1. सुख - चैनको पानीनिर सदैव डोन्याउनेछन्! 
मेरो यो तुच्छ प्राणलाई नयाँ तुल्याउनेछन्! 
</b>
2. आपनै नाउँको कारण जहाँ गए तापनि 
धर्मको सुमार्गमा मलाई अगुवाइ गर्नेछन! 
</b>
3. अँ मृत्युको छायामा हिँड्नु परे तापनि 
रक्षा गर्छन् जहीं जाऔ, तब किन डराऔं! 
</b>
4. सबै शत्रुको सन्मुख भोज तयार पार्नुहुन्छ! 
तेलले अभिषेक गरे कचौरा पोखिन्छ! 
</b>
5. निश्चय भलाइ र कृपा जीवनभरि रहन्छ 
याह्नको स्वर्गलोकमा सदैव वास गर्नेछु
</b>
--endofsong--

sno-69
<b>येशूको पछि म हिँड्न लागें दुनियाँलाई त्यागी क्रूस नै बोकी! 
</b>
<b>येशूको पछि म हिँड्न लागें, फर्कदिनँ(2) </b>
</b>
2. आमाले मलाई, बुबाले मलाई, सबैले मलाई त्यागे तापनि! 
</b>
3. माटोको मेरो क्षणभग्ङर शरीर, माटैमा फेरि नमिलेसम्म!
</b>
--endofsong--

sno-70
<b>म येशूको साथ ज्योतिमा हिँड्छु, दिन र रात उनको पछि म हिँड्नेछु 
पछि हिँड्नेछु जय पाउनेछु येशू खीष्ट मेरो बलिदान! 
</b>
<b>
हिँड्दै हिँड्दै ज्योतिमा येशुको साथ, हिँड्दै हिँड्दै समात्छु येशुको हात </b>
<b>ज्योतिमा हिँड्नेछु, जय पाउनेछु, येशू खीष्ट मेरो बलिदान! </b>
</b>
2. म येशूको साथ ज्योतिमा हिँड्छु अन्धकारमा पनि म डराउँदिनँ 
कदम बढाउँछु, मनले गाउनेछु, येशू खीष्ट मेरो बलिदान! 
</b>
3. म येशूको साथ ज्योतिमा हिँड्छु हेर्दैहेर्दै सब दिन गोहार पाउनेछु 
शोक या खुशी होस्, नजिक छन् मेरो, येशू खीष्ट मेरो बलिदान! 
</b>
4. म येशूको साथ ज्योतिमा हिँड्छु आपनो आँखा उनमा म लगाउनेछु! 
हातमा छ क्रूस, झण्डा छ अद्भुत, येशू खीष्ट मेरो बलिदान!
</b>
--endofsong--

sno-71
<b>तिमी एउटा, बाँचेको मान्छे खीष्टको अनुग्रहले </b>
<b>छानिएको हजारौंबाट साक्षी देऊ तिमीले! </b>
</b>
1. त्यो रूखलाई हेरी बुझन तिमी, ग्रीष्म नजीकै छ(2) 
ईश्वरको राज्य आइपुगेको छ(2) समयलाई बुझन! 
</b>
2. नोआलाई समझ प्रलय हुँदा, मानिसको मूर्खता(2) 
सो बुझी आजै जोशिलो भई(2) ल्याऊ भित्र बोलाई! 
</b>
3. प्रभुलाई सम्झ इनारको छेउमा पर्खेका एउटीलाई(2) 
वरदान पाई गाग्रो छोडेर(2) तब शहरमा गइहाली! 
</b>
4. हे प्रिय आज तिमीले केही त्याग निश्चय(2) 
येशूको प्रेमले प्रेम गरौं सबलाई(2) यो मौका आजै छ!
</b>
--endofsong--

sno-72
<b>दिनमा बादल को खाँबो बनी, रातमा आगोको ज्वाला बनी 
रक्षा गर्यो हामीलाई प्रभुजी, सुख - शान्तिमा बिते दिन(2) 
</b>
<b>धन्य, धन्य, धन्य प्रभुलाई जो दिनुभयो हामीलाई </b>
<b>छत्र - छायामा लुकाई, प्रभुजी, दिन - रात हर समयमा(2) </b>
</b>
2. वचनको मन्न दिनुभयो, चट्टान फुटाई पानी दियौ 
 आत्मामा भई हामीलाई, प्रभुजी, तिम्रो बाटोमा डोन्यायौ(2) 
 </b>
3. यो नयाँ सुन्दर सालमा पनि प्राण, आत्मा, शरीर, हृदय पनि 
रक्षा गरिदिनुहोस्, प्रभुजी, गरिदेऊ आत्मिक उन्नति(2) 
</b>
4. स्वर्ग देशमा पुग्न पाऊँ, अनन्त भजन सुनाउन पाऊँ 
सधैं शरण परेर, प्रभुजी, साष्टाग्ङ् प्रणाम् गर्न पाऊँ(2)
</b>
--endofsong--

sno-73
<b>एक बारको जुनी यो, लानु त के छ र, मरेर जाने हो </b>
<b>जीवन यहाँ यो अमर छैन नै, माटोमा मिल्ने हो! </b>
</b>
1. मृत्यपछि तर जीवन अर्को छ, विश्वासी सबैलाई 
विश्वास गरौं न स्वर्गीय पितालाई(2) 
</b>
2. क्रूसको निर्दयी मृत्युलाई सहनु प्रभु नै आउनुभो 
उनैले हाम्रो पाप उठाइलानुभो(2) 
</b>
3. ज - जसले उनमाथि, विश्वास गर्नेछ नाश हुने छैन नै 
पाउनेछन् तिनैले अनन्त जीवन(2)
</b>
--endofsong--

sno-74
<b>आज - भोलि - भरे भन्दै जीवन यहाँ अस्ताउँछ </b>
<b>खीष्टलाई माया गर्ने मान्छे मृत्युपारि उदाउँछ </b>
</b>
1. मेरो हृदयका मूर्तिहरूलाई खीष्ट हटाइबक्सियोस् 
खीष्ट मेरो राजा, मालिक, यहाँ राज गरिबक्सियोस,
विगत दिनहरू व्यथै गुमाएँ, वर्तमान चढाउँछु 
येशूको प्रेमको कहानी सबैलाई गीतबाट सुनाउँछु! 
</b>
2. विश्वमा सधै म बस्ने होइनँ, बटुवा मात्र हुँ, 
यो बाटो फेरि म हिँड्न छैन एक तीर्थ यात्री हुँ, 
विजयी खीष्टको शक्तिले सबै कर्त्तव्य सुल्झाउँछु,
सम्पूर्ण कार्य शेष भएपछि म स्वदेश फिर्नेछु!
</b>
--endofsong--

sno-75
<b>प्रभु अर्जी सुनिलेऊ(2), गोर्खालीले मुक्ति पाउने ढोका खोलिदेऊ </b>
</b>
1. पिता, पुत्र, पवित्रात्मा, अर्जी हाम्रो लेऊन् 
आगो मेघको खाँबो उभ्याई बाटो देखाइदेऊन्! 
</b>
2. पूर्व, दक्षिण, पश्चिम दिशा अनेक धर्मका जन छन् 
उत्तर तिब्बत, मध्ये नेपाल गोर्खालीका कूर छन्!  
</b>
3. थापाथली, भागाउँ, पाटन काठमाण्डू छन् शहर 
तिनलाई, तिम्रो भक्ति पार्नु, प्रभु हाम्रो रहर! 
</b>
4. उठ भाइ हो, जानै पर्छ, पचाई निन्दा, लाज 
धन, जन, चैन र सुख त्यागी, गर्नु धर्मकाज!
</b>
--endofsong--

sno-76
<b>येशू कस्तो प्यारो मित्र पापको भार उठाउनुभो 
दुःख - सुख ईश्वरकहाँ ल्याउनु हामीलाई वरदान कत्रो ? 
</b>
<b>कति शान्ति - सुख गुमाउँछौ, कति दुःख छ व्यर्थेमा ? </b>
<b>कारण ईश्वरकहाँ हामी सब ल्याउँदैनौं प्रार्थनामा! </b>
</b>
2. चारैतिरबाट आउँछ संकट, क्लेश र परीक्षा 
लौ, हरेस खानुपर्दैन खीष्टलाई भनौ प्रार्थनामा, 
हाम्रो सबै दु : खका भागी, यस्तो मित्र कहाँ पाऔला ? 
हर कमजोरी येशू बुझ्छन् खीष्टलाई भनौ प्रार्थनामा! 
</b>
3. हम छौं कि निर्बल, दुःखित, चिन्ता बोझले लादिएका ? 
हाम्रो आश्रय खालि येशू ख्रीष्टलाई भनौ प्रार्थनामा,
साथीले के गर्छन होला ? ख्रीटलाई भनौ प्रार्थनामा, 
उनले रक्षा गर्छन हाम्रों, उनमा पाउँछौं सान्त्वना!
</b>
--endofsong--

sno-77
<b>प्रभुको दर्शन, येशूको दर्शन पाएर भाई लाग सेवामा(2) 
</b>
</b>
1. नेपाल देशले डाकिरहेछ, आऊ बचाऊ हामीलाई(2) 
आत्मा मर्दैछन्(2), हेर हजारौं पापको सागरमा ! 
</b>
2. क्रूसमा आपनो प्राण प्रभुले जगत्को लागि दिए(2) 
प्रेमलाई हेर(2), नेपालको लागि उनको हृदयमा! </b>
3. निद्रा त्यागी जाग उठ, हे नव - जवान हो(2) 
अहिले नै गर(2), प्रभुको सेवा रहल जीवनमा! </b>
4. अन्धकार छायो चारै दिशामा, रात आइपुग्यो(2) 
जे गर्नुपर्छ(2), अहिले नै गर दिनको ज्योतिमा! </b>
5. येशूको लागि आत्मा बचाउनु तिमी छिट्टै आऊ(2) 
अन्न छ पाकेको(2), सब जम्मा गर येशूको भण्डारमा!</b>
--endofsong--

sno-78
<b>बढ्दै - बढ्दै जाऔं पछि नहटौं, </b>
<b>क्रूसको झण्डा काँधमा लिई, अघि बढ्दै जाऔं(2) </b>
</b>
1. सेना हामी खीष्टका हौं, युद्ध गर्दै जाऔं 
कनान देशको बाटोमा सब कदम बढ़ाओ(2) 
कदम बढाउँदै जाऔं, वैरीलाई हराऔं 
कनान देशमा हामी सब जयवन्तको गीत गाऔं(2) 
<b>
2. कप्तान हाम्रो सेनाको खीष्ट आफै हुन्  
तरवार हाम्रो आत्माको, झिलम धर्मको(2) 
सहायता उनी गर्छन् जीवन संग्राममा 
दैनिक जीवनको हाम्रो कदम - कदममा(2) 
</b>
3. वैरी धेरै भए, हामी तै हरेस नखाऔं 
जयवन्त शक्ति पाउनलाई खीष्ट शरणमा जाऔं(2) 
शत्रुलाई हराऔं, झण्डा फर्फराऔं! 
हृदय हाम्रो नवीन जोशले भराउँदै जाऔं(2)
</b>
--endofsong--

sno-79
<b>म पापको बाटो छोड्दछु, जहाँ धेरै मान्छे मर्दछन्! 
स्वर्गको घरलाई खोज्दछु, यहाँ बस्ने मेरो छैन मन! 
</b>
<b>यो दुनियाँ मेरो घर होइन, साँच्चै यो मेरो घर होइन </b>
<b>यस दुनियाँमा आराम छैन, यो दुनियाँ मेरो घर होइन </b>
</b>
2. मान्छेले रोक्न खोज्दछन्, न प्रार्थना गर्न दिँदछन् 
तिनका बातलाई सुन्दिनँ म, स्वर्गको घरलाई खोज्छु म! 
</b>
3. मसँग पापीहरू आऊ, स्वर्ग देशमा हामीहरू जाऔं 
र बस्न अब छिट्टै आऊ, स्वर्गको घरलाई खोज्न जाऔं!
</b>
--endofsong--

sno-80
<b>बिहान समय रोप्छौं, दयारूपी बीउलाई 
दिउँसो पनि गछौं, साँझ नपरुञ्जेल 
धीरजले काम गछौं, फलको आशा राखी 
ल्याउनेछौं रमाउँदै, कामको पूरो फल! 
</b>
<b>कामको पूरो फल, कामको पूरो फल </b>
<b>ल्याउनेछौं रमाउँदै, कामको पूरो फल(2) </b>
</b>
2. दु : ख सही रोप्छौं, सुख भोगी रोप्छौं 
झरीमा, जाडोमा, रहन्छौं अटल 
काट्ने बेला हामी, पाकेको फल पाउँछौं 
ल्याउनेछौं रमाउँदै, कामको पूरो फल! 
</b>
3. प्रभु खीष्टको लागि हँदै पनि रोपौं 
हानिलाई देखेर, नवनौं चंचल 
दुःखको अन्त हुन्छ, इनाम पनि आउँछ  
ल्याउनेछौं रमाउँदै, कामको पूरो फल!
</b>
--endofsong--

sno-81
<b>के म जाऊँ रित्तै हात लिई, यसै भेटू प्रभुलाई ? 
के म एकै दिनको कामलाई दिन नसकुँ उनलाई ? 
</b>
<b>के म जाऊँ रित्तै हात लिई, यसै भेटू प्रभुलाई ? </b>
<b>किन येशूकहाँ नल्याऊँ एउटै पनि साथीलाई ? </b>
</b>
2. डरै छैन मृत्युदेखि खीष्ट बचाउने छन् मलाई 
तर उनकहाँ रित्तै जाँदा रुनेछ मेरो हृदय! 
</b>
3. त्यो समय जो पापमा काटें, त्यो फर्किन सके ता 
प्रभुलाई त्यो दिने थिएँ हिँड्दै उनको इच्छामा! 
</b>
4. खीष्टीय जन हो, जाग, उठ, बेला हुँदा बल लगाऊ 
आपनो मृत्युभन्दा अघि सकभर धेरै प्राण बचाऊ!
</b>
--endofsong--


sno-82
<b>येशू बोलाउँछन्, सबलाई(2), प्रेमसाथ बोलाउँछन् सबलाई </b>
<b>अँगालोमा उनको, येशू बोलाउँछन् सबलाई, </b>
</b>
1. हृदय तिम्रो हताश भए, शक्ति छ तिम्रो लागि(2) 
मुक्ति र ज्योति तिम्रो लागि येशू कहाँ, लिन आऊ आज(2) 
 </b>
2. सब रोगलाई निको पार्ने शक्ति छ उनीकहाँ(2) 
तत्पर छन् तिम्रो मुक्तिदाता प्यार गर्न सधैं तिमीलाई(2)
</b>
--endofsong--

sno-83
<b>हेर न, हेर न, हेर न कलवरीको त्यो डाँडालाई </b>
<b>महान् प्रेम गर्नुभो येशूले, हेरन, हेरन, दाज्यू - भाइ(2) </b>
</b>
1. पापीको पापलाई मेटाउन क्रूसमा मर्नुभो येशूजी(2) 
विश्वास गरन - गरन क्रूसैमा टाँगिए को येशूलाई(2)          
</b>
2. आउनेछन् संसारमा येशूजी विश्वासीहरूलाई उठाउन(2) 
जानलाई तयार होऊ दाज्यू - भाइ, आनन्दको त्यो देशैमा(2)
</b>
--endofsong--

sno-84
<b>ख्रीष्टकहाँ आऊ, साथी, येशकहाँ आऊ, साथी </b>
<b>जीवनको जल लिन, आपनो प्यास मेटिलिन(2) </b>
</b>
1. जीवनको जल उनै हुन् युग - युग तृप्ति दिने(2) 
उनलाईत यदि पियौं भने 
तिमी कहिल्यै प्यासा बन्दैनौं युगानुयुगसम्म नै! 
</b>
2. जीवनको बाटो उनै हुन् स्वर्ग राज्यमा पुर्याइदिने(2) 
उनलाई यदि चुन्यौ भने  
पिताकहाँ निश्चय पुग्ने छौ युगानुयग राज्य गर्नेलाई!    
</b>
3. जीवनको रोटी उनै हुन् भोको मनलाई तृप्ति दिने(2) 
उनलाई तिमीले खायौ भने 
तिमी कहिल्यै भोको बन्दैनौ युगानुयुगसम्मलाई! 
</b>
4. एउटा मात्रै ढोका उनै हुन् स्वर्गराज्यमा प्रवेश गर्नलाई(2) 
यही बाटो पस्यौ भने  
निश्चय तिमी स्वर्ग पुग्नेछौं असीम सुखको भागी हुनलाई! 
</b>
5. एउटा मात्र सत्य येशू हुन् सारा जगको उद्धार गर्नलाई(2) 
यदि उनलाई अपनायौ भने  
अनन्त दण्डबाट उम्कन्छौं, उनीसँग सदा रहनेछौं!
</b>
--endofsong--

sno-85
<b>विश्वास गरी प्रभुको चरणमा आऊ </b>
<b>अपना भूललाई स्वीकारी उनैमा क्षमा पाउन,</b> 
<b>उनी आए संसारमा बचाउन हामी सबैलाई </b>
<b>केवल उनमा छ मुक्ति, उनी हुन् साँचो गोठालो </b>
</b>
1. कलवरी डाँडामा येशूलाई झुण्डिएको आज हेरिदेऊ 
केवल तिमै निम्ति मात्र उनले आपनो प्राणसम्म दिए(2) 
</b>
2. उनको प्रेमी बोलावट सुनिदेऊ, आपनो हृदय उनलाई खोलिदेऊ 
उनी आउनुहुनेछ तिमीभिन्न दिनलाई अनन्त जीवन(2)
</b>
--endofsong--

sno-86
<b>हाम्रो यो जीवन घाम - छाया मात्र हो </b>
<b>हाम्रो यो जीवन बगेको खोलो हो </b>
<b>फर्केर आउँदैन बितेको जीवन यो </b>
<b>रोएर फिर्दैन गएको यौवन यो </b>
</b>
1. मिलेर - जुलेर सबैले जयजयकार मनाऔं 
हाँसेर गाएर सबैले प्रभुको वचन सुनाऔं!    
</b>
2. आजलाई अनि भोलिलाई स्वर्गको मार्ग बनाऔं
 सम्झाउँदै - बुझाउँदै अरूलाई प्रभुको वचन सुनाऔं!
 </b>
 --endofsong--

sno-87
<b>बादलमा फेरि आउनेछन् येशू राजा </b>
<b>यही आशामा हाँसिदेऊ, आँसुलाई थामिदेऊ </b>
</b>
1. तिमीले मुट बाँधेर कारगारहरूमा पर्खेका छौ  
तिमीले निन्दा चोटहरू उनको निम्ति भनेर खपेका छौ 
साथी - समाज छुटेर जाँदा, आकाशमा उनलाई कुरेका छौ(2) 
निश्चय नै प्रभु आउनेछन् त्याही आकाशमा 
तिम्रो धीरजलाई नहराऊ, केही बेर पर्खिदेऊ! 
</b>
2. तिम्रो नाउँलाई पनि उनले जीवनको किताबमा लेखेका छन् 
तिम्रो ठाउँ उनले आपनो घरमा अनन्तसम्मलाई तोकेका छन् 
तिनो हुदय दुःखित नबनोस्, उनको वचन सधैं याद गर(2)
</b>
--endofsong--

sno-88
<b>हे सारा पृथ्वीका मानिस हो, परमप्रभुको जयजयकार मनाऔं </b>
<b>आनन्दसाथ उनको सेवा गर, भजन गाएर उनको सामने आओ </b>
</b>
1. परमप्रभु नै परमेश्वर हुन्, उहाँले हामीलाई बनाउनुभयो(2) 
हामी उहाँका प्रजा अनि उहाँका खर्कका भड़ाहरू हौं(2) 
</b>
2. धन्यवादसाथ र प्रशंसा गर्दै उहाँको ढोका र चोकभिन्न पस(2) 
उहाँलाई धन्यवाद चढ़ाऔं, उहाँको नाउँलाई धन्यको भन(2) 
</b>
3. परमप्रभु भलो हुनुहुन्छ, उहाँको कृपा सधैभरि छ(2)
 अनि उहाँको सत्यता पुस्तौंसम्म स्थिर रहन्छ(2)
 </b>
--endofsong--

sno-89
<b>येशू धन्यवाद मैले पुज्नुपर्दैन </b>
<b>न आकाश, न पृथ्वीका आकृतिहरू </b>
<b>तिमीले चिनाइदियौ साँचो परमेश्वरलाई </b>
<b>येशू धन्यवाद!</b>
</b>
1. पहाड़, नदी, जग्ङ्ल र बादल तिमै सृष्टि हो(2) 
कसरी पुर्जे मैले तिम्रा हातका रचनाहरू ? 
तिमीले बताइदियौ आदि - अन्त तिमी नै हौ! 
</b>
2. तोडू कति मेरो जीवनलाई मुक्ति को खोजीमा(2) 
पुण्य गरें भन्छु, छैन शान्ति मेरो आत्मामा 
तिमीले देखाइदियौ बाटो, सत्य र जीवन!
</b>
--endofsong--


sno-90
<b>सिंहासनमा विराजमान हुने </b>
<b>परमेश्वरका पुत्र हामी </b>
<b>आऊ उनलाई भजौं भक्तिसाथ </b>
<b>कहिले छोड्ने छैनन् हाम्रो हात(2) </b>
</b>
1. उहाँको रगतले धोई पखालेको पवित्र जाति 
आदर, प्रशंसायोग्य परमेश्वरको पूजाहारी हामी 
सनातनदेखि, सनातनसम्म  
आऊ उनलाई भजौं भक्तिसाथ 
कहिले छोड्ने छैनन् हाम्रो हात! 
</b>
2. झरी - घाम र छायाको सामना गरौं हामी 
सबै नयाँ भएको सिय्योनमा जाने छौं हामी 
बादलपारिको उनको देशमा 
आऊ उनलाई भजौं भक्तिसाथ 
कहिले छोड्ने छैनन् हाम्रो हात!
</b>
--endofsong--

sno-91
<b>हेर न हेर सृष्टिको सुन्दरता </b>
<b>यसलाई बनाउने प्रभुको महानता </b>
<b>धनी र गरीब दुबै मिलेर </b>
<b>भन्न सक्छन्, ‘प्रभु, धन्यवाद </b>
1. खेतका आलीहरू अन्न र बालीहरू 
बादल, वृष्टि र बतासहरू(2) 
चराचुरुङ्गी उड्दै, माथि आकश छैदा(2) 
स्वर्ग नै पुगी दिन्छ मन मेरो! 
</b>
2. अनौठा बातहरू, जीव - जीवतहरू, उज्याला दिन अनि रातहरू(2) 
असंख्य जातिहरू, विभिन्न रीतहरू(2), उदेकले भरिन्छ यो मन मेरो! 
गरन गर ईश्वरको प्रशंसा, सम्पूर्ण हृदयले उपासना 
मान्छे - मान्छको सबै भिन्नता, मेटियो हेर उनको आँगनमा!
</b>
--endofsong--

sno-92
<b>मैले निश्चय गरेको छु रमाउन येशूमा </b>
<b>मैले निश्चय गरेको छु विश्वास गर्न उनैमा </b>
</b>
1. चाहे दाखको बोटमा कुनै फूल नफुलोस् 
चाहे मेरो जीवनमा कुनै सुधार नहोस्(2) 
</b>
2. चाहे हाँस्न परोस, चाहे रुन परोस् 
चाहे बाँच्न परोस, चाहे मर्न परोस्(2) 
</b>
3. चाहे खाँचो परोस, चाहे प्रशस्त होस्  
चाहे मेरो जीवनमा कुनै सुधार नहोस्(2) 
</b>
4. परमप्रभु नै मेरा सहारा हुन् 
परमप्रभु नै मेरो जीवनको ज्योति हुन्(2)
</b>
--endofsong--

sno-93
<b>महिमा मारिए को थुमालाई </b>
<b>प्रशंसा प्रभुहरूका प्रभुलाई </b>
<b>जयजयकार राजाहरू का राजालाई(2) </b>
</b>
1. धन्यवाद, स्तुति, आदर र भक्ति 
मारिएका थुमालाई अति(2) 
इज्जत, मान, वैभव र शक्ति(2) 
अति पवित्र ( 3 ), ईश्वरप्रति, ईश्वरप्रति! 
</b>
2. होसन्ना आमिन्, गौरव र गीति 
मारिएका थुमालाई अति(2) 
प्रणाम् ढोग, दण्डवत, दृष्टि(2) 
ल्याउँछौं विजयी ( 3 ), ईश्वरप्रति, ईश्वरप्रति!
</b>
--endofsong--

sno-94
<b>आकाशभन्दा उच्च - उच्च छ नाउँ 
सागरभन्दा गहिरो – गहिरो छ प्रेम  
आसमानभन्दा विशाल - विशाल अनुग्रह छ! 
हाम्रो प्रभु येशूको! 
यसैले गछौं   प्रशंसा, गाउँछौ महिमा उनै येशूको(2)                             
</b>
2. वाक्यले व्यक्त नहुने, भन्नलाई शब्द नपुग्ने प्रेम 
आदिदेखि अहिलेसम्म समयले साक्षी दिएको प्रेम, 
स्वर्ग छोड़ी आउनुभो ' क्रूसैमा मर्नुभो ' 
मृत्युलाई जिलुभो ' हामीलाई मुक्ति दिनलाई!
</b>
3. सारा सृष्टिले ढोग्नेछ, सबै बँडाहरू टेक्नेछन्  
निर्बल बलियो हुनेछु, लाटोले पुकार्नेछ त्यो नाउँ 
अन्धो ले देख्नेछ, बहिरोले सुन्नेछ, 
मुर्दा बिउँतनेछ उनैलाई महिमा दिनलाई!
</b>
--endofsong--

sno-95
<b>सबै जातिका परमेश्वर, सारा पृथ्वी र स्वर्गको मालिक 
तपाईंको नाउँ उच्च पाछौं, तपाईंको शक्तिको बढ़ाई गर्छौ!              
</b>
2. सारा संसारले येशूलाई देख्नपर्छ, सारा मानिसले येशूलाई पुज्नुपर्छ(2) 
कारण तपाई मात्र राजा र प्रभु, एक मात्र परमेश्वर(2) 
</b>
3. सारा जातिले येशूलाई चिन्नेपर्छ, सारा नेपालीले येशूलाई पाउनुपर्छ(2) 
कारण तपाई मात्र राजा र प्रभु, एक मात्र परमेश्वर(2)
</b>
--endofsong--

sno-96 
<b>महान् प्रभुलाई महिमा, परमप्रभुलाई प्रशंसा </b>
<b>यो मेरो जीवनको चाहना हल्लेलुयाह होसन्ना(2) </b>
</b>
1. वर्तमान मेरो तपाईको हातमा, भविष्य पनि तपाईंको साथमा 
आनन्दित छु, शान्तिमा छु प्रभुहरूका(2)
</b>
2. सर्वाग्ङ मेरो येशूको हातमा अर्पण गर्छु, धन्यवाद साथमा 
निश्चिन्त छु निर्धक्क छु, राजाहरूका राजामा(2)
</b>
--endofsong--

sno-97
<b>स्तुति होस् परमेश्वरलाई आज अनि सदालाई </b>
<b>जो हुनहुन्थ्यो, हुनहुन्छ र हुन आउनुछुनुछ(2) </b>
</b>
1. हृदय खोली चढाउँछौ भक्ति, हे ईश्वर तपाईंलाई 
अर्पन्छौं तन, मन, प्राण र शक्ति सबै थोक तपाईलाई(2) 
</b>
2. रित्याउनुहोस् आज मलाई, बनाउनुहोस् आपनो इच्छामा 
चलाउनुहोस् पवित्रात्मा, म तयार छु प्रभु(2)
</b>
--endofsong--

sno-98
<b>तुरहीको चर्को स्वरमा प्रधान दूत गर्जन्छन् है </b>
<b>बादलको सवारीमा येशू एक दिन आउँछन् है  </b>
<b>आपनो दुलही साथमा लानलाई(2) </b>
<b>बादलको सवारीमा येशू एक दिन आउँछन है! </b>
</b>
1. चिहानभिन्न सुतेकाहरू महिमित शरीरमा उठ्छन है 
 हामी सबै दुलही बनी प्रभुलाई भेट्न जान्छौं है! 
 </b>
2. त्यस दिन सबै साथी -सग्ङी बेहाल भई यहाँ छुट्छन् है! 
त्यो दिन हाम्रो आँसु प्रभुले पुछी सधै साथ राख्छन् है!
</b>
--endofsong--

sno-99
<b>हामी उचालौं महिमित थुमालाई, हामी उचालौं जीवित येशूलाई (2 ) 
गाउँदै - बजाउँदै, प्रशंसा गदैं, चढ़ाऔं धन्यवाद प्रेमी प्रभुलाई(2) 
</b>
2. हाम्रो प्रार्थनामा हामी उचालौं, हाम्रो वचनमा हामी उचालौं(2) 
गाउँदै - बजाउँदै, स्तुति गदैं, चढाऔं धन्यवाद प्रेमी प्रभुलाई(2) 
</b>
3. प्रशंसासाथ हामी उचालौं, स्तुति गदैं हामी उचालौं(2) 
गाउँदै - बजाउँदै, जयजयकार गदैं, चढाऔं धन्यवाद प्रेमी प्रभुलाई
</b>
--endofsong--

sno-100
<b>प्रार्थना, प्रार्थना, पल - पलको होस् हाम्रो </b>
<b>यो चाहना पहिरौं यो शक्तिलाई झै गहना(2) </b>
</b>
1. आत्मिक जीवनको सास हो प्रार्थना, फेर्न यो छोडेमा जीवन रहन्न(2) 
विश्वासी हरेकलाई नभई यो हुन्न(2) 
</b>
2. प्रार्थना हो विश्वासीको ठूलो हतियार आत्मिक युद्धमा विजय गर्ने(2) 
असम्भव कुरा पनि सम्भव गराउने(2) 
</b>
3. ल्याउँछ बाधा – अड्चन प्रत्येक पाइलामा पार्न शैतान परीक्षामा(2) 
सुरक्षा खालि हाम्रो छ प्रार्थना(2)
</b>
--endofsong--

sno-101
<b>सम्झ है बुझ है एकपल्ट सोच है(2)</b>
</b>
1. हाम्रो जीवन के छ र ? माटोको शरीर माटोमा हो 
एक दिन त माटोमा मिल्नुछ(2)
</b>
2. पवित्र बाइबलले भन्दछ प्रभुलाई भुल्ले नाश हुनेछ  
उम्कने ठाउँ कहाँ छ र(2) 
</b>
3. अनन्तसम्म नरककुण्डमा दन्किरहेको आगोमा 
बचाउने को होला त्यो दिनमा(2) 
</b>
4. येशूको रगतमा शक्ति छ नरकदेखि बचाउनलाई 
पछुताउने पापीलाई मौका छ(2)
</b>
--endofsong--

sno-102
<b>पवित्र आत्माको मन्दिरलाई अब यसै हेला नगर(2) </b>
</b>
1. तिमीमा भएको शरीर पवित्र आत्माको मन्दिर हो(2) 
त्यसैले शरीरमा हुँदै ईश्वरलाई महिमा गरिदेऊ(2) 
</b>
2. मुक्तिदाता खीष्टको रगतले आज तिमी किनिएका हौ(2) 
यो शरीर तिम्रो होइन यो त केवल ईश्वरको मन्दिर हो(2) 
</b>
3. निराशाको आँधीमा नहिँड अन्धकारले छोपी लैजाला(2) 
येशूमा विश्वास गरिदेऊ नत्र जीवन व्यर्थेमा गुमाउला(2)
</b>
--endofsong--

sno-103
<b>परमप्रभु मेरो गोठालो हुन्, मलाई केहीको, खाँचो छैन (2)</b>
</b>
1. उहाँले मेरो पाईलाहरूलाई चिप्लन दिनुहुन्न(2) 
सुख चैनको पानी छेउ डोर्याउनु हुन्छ(2)
</b>
2. उहाँले मेरो शिरलाई तेलले अभिषेक गर्नुहुन्छ(2) 
मेरो कचौरा भरिएर पोखिन्छ(2)
</b>
--endofsong--

sno-104
<b>आँखाको एक निमेषमा, तुरहीको आखिर आवाजमा </b>
<b>बादलमा हामी उड्नेछौ, येशूसँग हामी हुनेछौं(2)  </b>
</b>
1. खीष्टमा मरेकाहरू पहिले जिइउठ्छन् त्यसपछि जिउँदाहरू(2) 
अविश्वासी र पापीहरू चाहिँ छोडिन्छन् पछुताउँदै(2)
</b>
2. पाँच बुद्धिमती कन्याहरूजस्तै, लिइ राखौं फाल्तु तेल 
कुन बेला आउँछन् तिम्रा दुलहा, नसुत धेरै बेर(2) 
</b>
3. ढिलाउनेछैनन् तिम्रा प्रभुले भनेका छन् चाँडै आउँछु 
मृत्युसम्म नै विश्वासी होऊ, म तिमीलाई लैजान्छु(2)
</b>
--endofsong--

sno-105
<b>पापी मर्नुपर्ने क्रूसमा धर्मी येशु बलि भए(2) </b>
<b>मानव हितका लागि उनले सबै दुःख पीड़ा सहे, </b>
<b>एकजनाको बलिदानले सबै जनाको उद्धार भयो, </b>
<b>रगत बग्यो निर्दोषको दोषी सबलाई माफी भयो(2)</b>
</b>
1. आएथे खीष्ट संसारमा जहिले बलिदान हुनलाई(2) 
मर्नु है पन्यो क्रूसमा उनी पाप सबैको धुनलाई 
क्रूसको पीड़ा संसारको घृणा येशूले सहिदिए 
पापीको खोटमा कोको चोटमा बलि नै भईदिए(2)
</b>
2. त्यागेथे प्राण पहिरेर मुकुट शिरमा काँडाको(2) 
कसरी चुकाऔ प्रभुको ऋण कलवरी त्यो डाँडाको 
क्रूसको कथा क्रूसको व्यथा दोहोरिन नपाओस् 
पापीका लागि धर्मीजन मर्ने दिन फेरि नआओस्(2)
</b>
--endofsong--